Grading:  paullcC08b.tar
Time:     Thu May 7 23:10:13 EDT 2020

================================================================================

>>Scores from testing<<
1 >> Score from stulog01.txt:  135 / 135
2 >> Score from stulog02.txt:  150 / 150
3 >> Score from stulog03.txt:  660 / 660
4 >> Score from stulog04.txt:  530 / 530
5 >> Score from stulog05.txt:  410 / 410
6 >> Score from stulog06.txt:  395 / 395
7 >> Score from stulog07.txt:  0 / 25
8 >> Score from stulog08.txt:  250 / 250
9 >> Score from stulog09.txt:  445 / 445

================================================================================

Summary of valgrind results:

Valgrind issues:
==30828==     in use at exit: 1,596,043 bytes in 110,420 blocks
==30828==   total heap usage: 128,661 allocs, 18,241 frees, 3,022,142 bytes allocated
==30828== 24 bytes in 1 blocks are definitely lost in loss record 4 of 26
==30828== 50 bytes in 1 blocks are definitely lost in loss record 7 of 26
==30828== 60 bytes in 5 blocks are definitely lost in loss record 8 of 26
==30828== 84 bytes in 6 blocks are definitely lost in loss record 10 of 26
==30828== 1,232 (64 direct, 1,168 indirect) bytes in 4 blocks are definitely lost in loss record 16 of 26
==30828== 1,244 (64 direct, 1,180 indirect) bytes in 4 blocks are definitely lost in loss record 17 of 26
==30828== 3,195 (160 direct, 3,035 indirect) bytes in 10 blocks are definitely lost in loss record 20 of 26
==30828== 5,000 bytes in 10 blocks are definitely lost in loss record 21 of 26
==30828== 1,584,586 (80,000 direct, 1,504,586 indirect) bytes in 5,000 blocks are definitely lost in loss record 26 of 26
==30828==    definitely lost: 85,506 bytes in 5,041 blocks
Invalid reads: 0
Invalid writes: 0
Uses of uninitialized values: 0
================================================================================
Results from testing:

Begin testing...
Testing with script01.txt
Running student soln on ./scripts/script01.txt

Running compare on reflog01.txt and stulog01.txt
compare01.txt results:
Comparing reference file ./logs/reflog01.txt to student file stulog01.txt:

;
   zero-point line
; Existence searches that should find single matches:
   zero-point line
Cmd	1:	exists	Windmill	NM
   zero-point line

   zero-point line
1 occurrences: Windmill NM
   score: 10 / 10
----------------------------------------------------------------------
   zero-point line
Cmd	2:	exists	Last Canyon	NM
   zero-point line

   zero-point line
1 occurrences: Last Canyon NM
   score: 10 / 10
----------------------------------------------------------------------
   zero-point line
Cmd	3:	exists	Yucca Tank	NM
   zero-point line

   zero-point line
1 occurrences: Yucca Tank NM
   score: 10 / 10
----------------------------------------------------------------------
   zero-point line
;
   zero-point line
; Details searches that should find single matches:
   zero-point line
Cmd	4:	details_of	Windmill	NM
   zero-point line

   zero-point line
FID:	924890
   score: 5 / 5
Name:	Windmill
   score: 5 / 5
Type:	Populated Place
   score: 5 / 5
State:	NM
   score: 5 / 5
County:	Hidalgo
   score: 5 / 5
Longitude: 108d 37m 30s West (-108.625053) 
   (-108.625053) should be (-108.625052)
   deduction for incorrect tokens: 0
   score: 5 / 5
Latitude: 31d 58m 40s North (31.977869)
   score: 5 / 5

   zero-point line
----------------------------------------------------------------------
   zero-point line
Cmd	5:	details_of	Last Canyon	NM
   zero-point line

   zero-point line
FID:	924857
   score: 5 / 5
Name:	Last Canyon
   score: 5 / 5
Type:	Valley
   score: 5 / 5
State:	NM
   score: 5 / 5
County:	San Juan
   score: 5 / 5
Longitude: 108d 56m 30s West (-108.941765) 
   (-108.941765) should be (-108.941762)
   deduction for incorrect tokens: 0
   score: 5 / 5
Latitude: 36d 47m 24s North (36.789997)
   (36.789997) should be (36.789999)
   deduction for incorrect tokens: 0
   score: 5 / 5

   zero-point line
----------------------------------------------------------------------
   zero-point line
Cmd	6:	details_of	Bisti Badlands	NM
   zero-point line

   zero-point line
FID:	924849
   score: 5 / 5
Name:	Bisti Badlands
   score: 5 / 5
Type:	Area
   score: 5 / 5
State:	NM
   score: 5 / 5
County:	San Juan
   score: 5 / 5
Longitude: 108d 11m 42s West (-108.195068) 
   (-108.195068) should be (-108.195072)
   deduction for incorrect tokens: 0
   score: 5 / 5
Latitude: 36d 17m 5s North (36.284733)
   (36.284733) should be (36.284731)
   deduction for incorrect tokens: 0
   score: 5 / 5

   zero-point line
----------------------------------------------------------------------
   zero-point line

1 >> Score from stulog01.txt:  135 / 135
================================================================================

Testing with script02.txt
Running student soln on ./scripts/script02.txt

Running compare on reflog02.txt and stulog02.txt
compare02.txt results:
Comparing reference file ./logs/reflog02.txt to student file stulog02.txt:

;
   zero-point line
; Existence searches that should find single matches:
   zero-point line
Cmd	1:	exists	Gorman	NM
   zero-point line

   zero-point line
1 occurrences: Gorman NM
   score: 10 / 10
----------------------------------------------------------------------
   zero-point line
Cmd	2:	exists	Heck	NM
   zero-point line

   zero-point line
1 occurrences: Heck NM
   score: 10 / 10
----------------------------------------------------------------------
   zero-point line
Cmd	3:	exists	Big Arsenic Falls	NM
   zero-point line

   zero-point line
1 occurrences: Big Arsenic Falls NM
   score: 10 / 10
----------------------------------------------------------------------
   zero-point line
;
   zero-point line
; Distance_between searches:
   zero-point line
Cmd	4:	distance_between	924838	924839
   zero-point line

   zero-point line
First:	( 105d 17m 27s West, 36d 31m 50s North ) Gorman, NM
   score: 10 / 10
Second:	( 105d 18m 32s West, 36d 40m 2s North ) Heck, NM
   score: 10 / 10
Distance: 15.3km
   score: 10 / 10
----------------------------------------------------------------------
   zero-point line
Cmd	5:	distance_between	924838	924842
   zero-point line

   zero-point line
First:	( 105d 17m 27s West, 36d 31m 50s North ) Gorman, NM
   score: 10 / 10
Second:	( 105d 42m 19s West, 36d 40m 31s North ) Big Arsenic Falls, NM
   score: 10 / 10
Distance: 40.3km
   score: 10 / 10
----------------------------------------------------------------------
   zero-point line
Cmd	6:	distance_between	924890	924839
   zero-point line

   zero-point line
First:	( 108d 37m 30s West, 31d 58m 40s North ) Windmill, NM
   score: 10 / 10
Second:	( 105d 18m 32s West, 36d 40m 2s North ) Heck, NM
   score: 10 / 10
Distance: 603.7km
   score: 10 / 10
----------------------------------------------------------------------
   zero-point line
Cmd	7:	distance_between	924879	924864
   zero-point line

   zero-point line
First:	( 106d 49m 57s West, 32d 42m 7s North ) Estell Tank, NM
   score: 10 / 10
Second:	( 107d 45m 28s West, 32d 33m 20s North ) Montezuma Canyon, NM
   score: 10 / 10
Distance: 88.2km
   score: 10 / 10
----------------------------------------------------------------------
   zero-point line

2 >> Score from stulog02.txt:  150 / 150
================================================================================

Testing with script03.txt
Running student soln on ./scripts/script03.txt

Running compare on reflog03.txt and stulog03.txt
compare03.txt results:
Comparing reference file ./logs/reflog03.txt to student file stulog03.txt:

;
   zero-point line
; Existence searches that should find single matches:
   zero-point line
Cmd	1:	exists	Arroyo Seco Spring	NM
   zero-point line

   zero-point line
1 occurrences: Arroyo Seco Spring NM
   score: 10 / 10
----------------------------------------------------------------------
   zero-point line
Cmd	2:	exists	Agua Piedra Trail	NM
   zero-point line

   zero-point line
1 occurrences: Agua Piedra Trail NM
   score: 10 / 10
----------------------------------------------------------------------
   zero-point line
Cmd	3:	exists	Aqua Dulce Seep	NM
   zero-point line

   zero-point line
1 occurrences: Aqua Dulce Seep NM
   score: 10 / 10
----------------------------------------------------------------------
   zero-point line
;
   zero-point line
; Some that should find multiple matches:
   zero-point line
Cmd	4:	exists	Earth Tank	NM
   zero-point line

   zero-point line
2 occurrences: Earth Tank NM
   score: 10 / 10
----------------------------------------------------------------------
   zero-point line
Cmd	5:	exists	Turkey Tank	NM
   zero-point line

   zero-point line
3 occurrences: Turkey Tank NM
   score: 10 / 10
----------------------------------------------------------------------
   zero-point line
;
   zero-point line
; Details searches that should find single matches:
   zero-point line
Cmd	6:	details_of	Arroyo Seco Spring	NM
   zero-point line

   zero-point line
FID:	913978
   score: 5 / 5
Name:	Arroyo Seco Spring
   score: 5 / 5
Type:	Spring
   score: 5 / 5
State:	NM
   score: 5 / 5
County:	Rio Arriba
   score: 5 / 5
Longitude: 106d 11m 33s West (-106.192566) 
   (-106.192566) should be (-106.192565)
   deduction for incorrect tokens: 0
   score: 5 / 5
Latitude: 36d 24m 30s North (36.408344)
   (36.408344) should be (36.408345)
   deduction for incorrect tokens: 0
   score: 5 / 5

   zero-point line
----------------------------------------------------------------------
   zero-point line
Cmd	7:	details_of	Agua Piedra Trail	NM
   zero-point line

   zero-point line
FID:	913424
   score: 5 / 5
Name:	Agua Piedra Trail
   score: 5 / 5
Type:	Trail
   score: 5 / 5
State:	NM
   score: 5 / 5
County:	Los Alamos
   score: 5 / 5
Longitude: 106d 19m 10s West (-106.319473) 
   score: 5 / 5
Latitude: 35d 56m 37s North (35.943634)
   score: 5 / 5

   zero-point line
----------------------------------------------------------------------
   zero-point line
Cmd	8:	details_of	Aqua Dulce Seep	NM
   zero-point line

   zero-point line
FID:	913275
   score: 5 / 5
Name:	Aqua Dulce Seep
   score: 5 / 5
Type:	Spring
   score: 5 / 5
State:	NM
   score: 5 / 5
County:	Eddy
   score: 5 / 5
Longitude: 104d 41m 25s West (-104.690224) 
   (-104.690224) should be (-104.690227)
   deduction for incorrect tokens: 0
   score: 5 / 5
Latitude: 32d 7m 9s North (32.119225)
   (32.119225) should be (32.119223)
   deduction for incorrect tokens: 0
   score: 5 / 5

   zero-point line
----------------------------------------------------------------------
   zero-point line
;
   zero-point line
; Some that should find multiple matches:
   zero-point line
Cmd	9:	details_of	Earth Tank	NM
   zero-point line

   zero-point line
FID:	914030
   score: 5 / 5
Name:	Earth Tank
   score: 5 / 5
Type:	Reservoir
   score: 5 / 5
State:	NM
   score: 5 / 5
County:	Socorro
   score: 5 / 5
Longitude: 107d 13m 57s West (-107.232506) 
   (-107.232506) should be (-107.232505)
   deduction for incorrect tokens: 0
   score: 5 / 5
Latitude: 34d 3m 20s North (34.055614)
   score: 5 / 5

   zero-point line
FID:	914045
   score: 5 / 5
Name:	Earth Tank
   score: 5 / 5
Type:	Reservoir
   score: 5 / 5
State:	NM
   score: 5 / 5
County:	Socorro
   score: 5 / 5
Longitude: 107d 9m 11s West (-107.153061) 
   (-107.153061) should be (-107.153064)
   deduction for incorrect tokens: 0
   score: 5 / 5
Latitude: 34d 6m 36s North (34.109993)
   (34.109993) should be (34.109992)
   deduction for incorrect tokens: 0
   score: 5 / 5

   zero-point line
----------------------------------------------------------------------
   zero-point line
Cmd	10:	details_of	Turkey Tank	NM
   zero-point line

   zero-point line
FID:	913137
   score: 5 / 5
Name:	Turkey Tank
   score: 5 / 5
Type:	Reservoir
   score: 5 / 5
State:	NM
   score: 5 / 5
County:	Lincoln
   score: 5 / 5
Longitude: 105d 35m 40s West (-105.594429) 
   (-105.594429) should be (-105.594426)
   deduction for incorrect tokens: 0
   score: 5 / 5
Latitude: 33d 23m 5s North (33.384857)
   (33.384857) should be (33.384858)
   deduction for incorrect tokens: 0
   score: 5 / 5

   zero-point line
FID:	913160
   score: 5 / 5
Name:	Turkey Tank
   score: 5 / 5
Type:	Reservoir
   score: 5 / 5
State:	NM
   score: 5 / 5
County:	Catron
   score: 5 / 5
Longitude: 108d 44m 16s West (-108.737663) 
   score: 5 / 5
Latitude: 33d 32m 26s North (33.540436)
   score: 5 / 5

   zero-point line
FID:	913860
   score: 5 / 5
Name:	Turkey Tank
   score: 5 / 5
Type:	Reservoir
   score: 5 / 5
State:	NM
   score: 5 / 5
County:	Rio Arriba
   score: 5 / 5
Longitude: 106d 51m 4s West (-106.851242) 
   score: 5 / 5
Latitude: 36d 26m 0s North (36.433380)
   (36.433380) should be (36.433382)
   deduction for incorrect tokens: 0
   score: 5 / 5

   zero-point line
----------------------------------------------------------------------
   zero-point line
Cmd	11:	details_of	Little Tank	NM
   zero-point line

   zero-point line
FID:	913135
   score: 5 / 5
Name:	Little Tank
   score: 5 / 5
Type:	Reservoir
   score: 5 / 5
State:	NM
   score: 5 / 5
County:	Otero
   score: 5 / 5
Longitude: 105d 26m 19s West (-105.438652) 
   (-105.438652) should be (-105.438648)
   deduction for incorrect tokens: 0
   score: 5 / 5
Latitude: 32d 45m 57s North (32.765804)
   (32.765804) should be (32.765806)
   deduction for incorrect tokens: 0
   score: 5 / 5

   zero-point line
FID:	913350
   score: 5 / 5
Name:	Little Tank
   score: 5 / 5
Type:	Reservoir
   score: 5 / 5
State:	NM
   score: 5 / 5
County:	Lincoln
   score: 5 / 5
Longitude: 105d 25m 40s West (-105.427719) 
   score: 5 / 5
Latitude: 33d 26m 34s North (33.442699)
   (33.442699) should be (33.442701)
   deduction for incorrect tokens: 0
   score: 5 / 5

   zero-point line
FID:	913357
   score: 5 / 5
Name:	Little Tank
   score: 5 / 5
Type:	Reservoir
   score: 5 / 5
State:	NM
   score: 5 / 5
County:	Otero
   score: 5 / 5
Longitude: 105d 28m 49s West (-105.480408) 
   (-105.480408) should be (-105.480410)
   deduction for incorrect tokens: 0
   score: 5 / 5
Latitude: 32d 49m 42s North (32.828449)
   (32.828449) should be (32.828450)
   deduction for incorrect tokens: 0
   score: 5 / 5

   zero-point line
FID:	913391
   score: 5 / 5
Name:	Little Tank
   score: 5 / 5
Type:	Reservoir
   score: 5 / 5
State:	NM
   score: 5 / 5
County:	Otero
   score: 5 / 5
Longitude: 105d 23m 30s West (-105.391647) 
   (-105.391647) should be (-105.391646)
   deduction for incorrect tokens: 0
   score: 5 / 5
Latitude: 32d 44m 32s North (32.742325)
   (32.742325) should be (32.742324)
   deduction for incorrect tokens: 0
   score: 5 / 5

   zero-point line
FID:	913890
   score: 5 / 5
Name:	Little Tank
   score: 5 / 5
Type:	Reservoir
   score: 5 / 5
State:	NM
   score: 5 / 5
County:	Socorro
   score: 5 / 5
Longitude: 107d 9m 42s West (-107.161705) 
   (-107.161705) should be (-107.161702)
   deduction for incorrect tokens: 0
   score: 5 / 5
Latitude: 34d 6m 11s North (34.103119)
   (34.103119) should be (34.103120)
   deduction for incorrect tokens: 0
   score: 5 / 5

   zero-point line
FID:	913938
   score: 5 / 5
Name:	Little Tank
   score: 5 / 5
Type:	Reservoir
   score: 5 / 5
State:	NM
   score: 5 / 5
County:	Rio Arriba
   score: 5 / 5
Longitude: 106d 34m 31s West (-106.575417) 
   (-106.575417) should be (-106.575416)
   deduction for incorrect tokens: 0
   score: 5 / 5
Latitude: 36d 25m 53s North (36.431335)
   score: 5 / 5

   zero-point line
----------------------------------------------------------------------
   zero-point line
;
   zero-point line
; Distance_between searches:
   zero-point line
Cmd	12:	distance_between	913137	913860
   zero-point line

   zero-point line
First:	( 105d 35m 40s West, 33d 23m 5s North ) Turkey Tank, NM
   score: 10 / 10
Second:	( 106d 51m 4s West, 36d 26m 0s North ) Turkey Tank, NM
   score: 10 / 10
Distance: 357.8km
   score: 10 / 10
----------------------------------------------------------------------
   zero-point line
Cmd	13:	distance_between	913132	913215
   zero-point line

   zero-point line
First:	( 105d 11m 48s West, 33d 36m 24s North ) Ramerez, NM
   score: 10 / 10
Second:	( 105d 50m 34s West, 32d 39m 36s North ) Table Top, NM
   score: 10 / 10
Distance: 121.2km
   score: 10 / 10
----------------------------------------------------------------------
   zero-point line
Cmd	14:	distance_between	913437	913451
   zero-point line

   zero-point line
First:	( 105d 48m 33s West, 35d 46m 9s North ) Big Tesuque Campground, NM
   score: 10 / 10
Second:	( 107d 18m 35s West, 36d 32m 9s North ) Jaramillo Mesa, NM
   score: 10 / 10
Distance: 159.4km
   score: 10 / 10
----------------------------------------------------------------------
   zero-point line
Cmd	15:	distance_between	913459	913579
   zero-point line

   zero-point line
First:	( 103d 11m 28s West, 36d 26m 48s North ) NASA Wind Charger, NM
   score: 10 / 10
Second:	( 105d 25m 33s West, 36d 22m 13s North ) Taos, NM
   score: 10 / 10
Distance: 200.2km
   score: 10 / 10
----------------------------------------------------------------------
   zero-point line

3 >> Score from stulog03.txt:  660 / 660
================================================================================

Testing with script04.txt
Running student soln on ./scripts/script04.txt

Running compare on reflog04.txt and stulog04.txt
compare04.txt results:
Comparing reference file ./logs/reflog04.txt to student file stulog04.txt:

;
   zero-point line
; Existence searches that should find single matches:
   zero-point line
Cmd	1:	exists	Bootlegger Gap	NM
   zero-point line

   zero-point line
1 occurrences: Bootlegger Gap NM
   score: 10 / 10
----------------------------------------------------------------------
   zero-point line
Cmd	2:	exists	Niagara Tunnel (historical)	NM
   zero-point line

   zero-point line
1 occurrences: Niagara Tunnel (historical) NM
   score: 10 / 10
----------------------------------------------------------------------
   zero-point line
Cmd	3:	exists	Cleveland Mine	NM
   zero-point line

   zero-point line
1 occurrences: Cleveland Mine NM
   score: 10 / 10
----------------------------------------------------------------------
   zero-point line
;
   zero-point line
; Some that should find multiple matches:
   zero-point line
Cmd	4:	exists	Arroyo Cuervo	NM
   zero-point line

   zero-point line
2 occurrences: Arroyo Cuervo NM
   score: 10 / 10
----------------------------------------------------------------------
   zero-point line
Cmd	5:	exists	Box Canyon	NM
   zero-point line

   zero-point line
4 occurrences: Box Canyon NM
   score: 10 / 10
----------------------------------------------------------------------
   zero-point line
Cmd	6:	exists	Canon del Agua	NM
   zero-point line

   zero-point line
6 occurrences: Canon del Agua NM
   score: 10 / 10
----------------------------------------------------------------------
   zero-point line
;
   zero-point line
; Some details searches:
   zero-point line
Cmd	7:	details_of	Canon del Agua	NM
   zero-point line

   zero-point line
FID:	902800
   score: 5 / 5
Name:	Canon del Agua
   score: 5 / 5
Type:	Civil
   score: 5 / 5
State:	NM
   score: 5 / 5
County:	Santa Fe
   score: 5 / 5
Longitude: 106d 13m 10s West (-106.219467) 
   (-106.219467) should be (-106.219468)
   deduction for incorrect tokens: 0
   score: 5 / 5
Latitude: 35d 15m 10s North (35.252819)
   (35.252819) should be (35.252820)
   deduction for incorrect tokens: 0
   score: 5 / 5

   zero-point line
FID:	904562
   score: 5 / 5
Name:	Canon del Agua
   score: 5 / 5
Type:	Valley
   score: 5 / 5
State:	NM
   score: 5 / 5
County:	Mora
   score: 5 / 5
Longitude: 105d 15m 25s West (-105.256958) 
   (-105.256958) should be (-105.256956)
   deduction for incorrect tokens: 0
   score: 5 / 5
Latitude: 35d 56m 50s North (35.947262)
   (35.947262) should be (35.947260)
   deduction for incorrect tokens: 0
   score: 5 / 5

   zero-point line
FID:	904563
   score: 5 / 5
Name:	Canon del Agua
   score: 5 / 5
Type:	Valley
   score: 5 / 5
State:	NM
   score: 5 / 5
County:	San Miguel
   score: 5 / 5
Longitude: 105d 16m 40s West (-105.277786) 
   (-105.277786) should be (-105.277788)
   deduction for incorrect tokens: 0
   score: 5 / 5
Latitude: 35d 40m 12s North (35.670044)
   (35.670044) should be (35.670042)
   deduction for incorrect tokens: 0
   score: 5 / 5

   zero-point line
FID:	904564
   score: 5 / 5
Name:	Canon del Agua
   score: 5 / 5
Type:	Valley
   score: 5 / 5
State:	NM
   score: 5 / 5
County:	Torrance
   score: 5 / 5
Longitude: 106d 19m 46s West (-106.329468) 
   (-106.329468) should be (-106.329464)
   deduction for incorrect tokens: 0
   score: 5 / 5
Latitude: 34d 41m 12s North (34.686726)
   score: 5 / 5

   zero-point line
FID:	904565
   score: 5 / 5
Name:	Canon del Agua
   score: 5 / 5
Type:	Valley
   score: 5 / 5
State:	NM
   score: 5 / 5
County:	Sandoval
   score: 5 / 5
Longitude: 106d 18m 23s West (-106.306412) 
   (-106.306412) should be (-106.306413)
   deduction for incorrect tokens: 0
   score: 5 / 5
Latitude: 35d 16m 56s North (35.282265)
   (35.282265) should be (35.282263)
   deduction for incorrect tokens: 0
   score: 5 / 5

   zero-point line
FID:	904566
   score: 5 / 5
Name:	Canon del Agua
   score: 5 / 5
Type:	Valley
   score: 5 / 5
State:	NM
   score: 5 / 5
County:	Sandoval
   score: 5 / 5
Longitude: 106d 32m 19s West (-106.538635) 
   (-106.538635) should be (-106.538637)
   deduction for incorrect tokens: 0
   score: 5 / 5
Latitude: 35d 18m 10s North (35.302818)
   score: 5 / 5

   zero-point line
----------------------------------------------------------------------
   zero-point line
Cmd	8:	details_of	Navajo	NM
   zero-point line

   zero-point line
FID:	899810
   score: 5 / 5
Name:	Navajo
   score: 5 / 5
Type:	Populated Place
   score: 5 / 5
State:	NM
   score: 5 / 5
County:	Rio Arriba
   score: 5 / 5
Longitude: 107d 3m 47s West (-107.063095) 
   score: 5 / 5
Latitude: 36d 56m 46s North (36.946121)
   (36.946121) should be (36.946120)
   deduction for incorrect tokens: 0
   score: 5 / 5

   zero-point line
----------------------------------------------------------------------
   zero-point line
Cmd	9:	details_of	Smuggler Hills	NM
   zero-point line

   zero-point line
FID:	901128
   score: 5 / 5
Name:	Smuggler Hills
   score: 5 / 5
Type:	Range
   score: 5 / 5
State:	NM
   score: 5 / 5
County:	Hidalgo
   score: 5 / 5
Longitude: 108d 38m 33s West (-108.642548) 
   (-108.642548) should be (-108.642544)
   deduction for incorrect tokens: 0
   score: 5 / 5
Latitude: 31d 27m 25s North (31.457050)
   score: 5 / 5

   zero-point line
----------------------------------------------------------------------
   zero-point line
Cmd	10:	details_of	Capitan Pass	NM
   zero-point line

   zero-point line
FID:	904748
   score: 5 / 5
Name:	Capitan Pass
   score: 5 / 5
Type:	Gap
   score: 5 / 5
State:	NM
   score: 5 / 5
County:	Lincoln
   score: 5 / 5
Longitude: 105d 28m 9s West (-105.469147) 
   (-105.469147) should be (-105.469149)
   deduction for incorrect tokens: 0
   score: 5 / 5
Latitude: 33d 37m 26s North (33.623970)
   score: 5 / 5

   zero-point line
----------------------------------------------------------------------
   zero-point line
Cmd	11:	details_of	Bug Scuffle Hill	NM
   zero-point line

   zero-point line
FID:	904166
   score: 5 / 5
Name:	Bug Scuffle Hill
   score: 5 / 5
Type:	Summit
   score: 5 / 5
State:	NM
   score: 5 / 5
County:	Otero
   score: 5 / 5
Longitude: 105d 48m 24s West (-105.806648) 
   (-105.806648) should be (-105.806645)
   deduction for incorrect tokens: 0
   score: 5 / 5
Latitude: 32d 38m 50s North (32.647316)
   (32.647316) should be (32.647317)
   deduction for incorrect tokens: 0
   score: 5 / 5

   zero-point line
----------------------------------------------------------------------
   zero-point line
;
   zero-point line
; Some distance searches:
   zero-point line
Cmd	12:	distance_between	899789	899891
   zero-point line

   zero-point line
First:	( 108d 51m 11s West, 34d 23m 33s North ) Mesita Blanca, NM
   score: 10 / 10
Second:	( 106d 52m 28s West, 33d 53m 34s North ) San Antonito, NM
   score: 10 / 10
Distance: 190.4km
   score: 10 / 10
----------------------------------------------------------------------
   zero-point line
Cmd	13:	distance_between	899970	900565
   zero-point line

   zero-point line
First:	( 107d 29m 33s West, 34d 59m 28s North ) Tze-Midi, NM
   score: 10 / 10
Second:	( 104d 59m 34s West, 36d 24m 2s North ) Toothache Spring, NM
   score: 10 / 10
Distance: 274.8km
   score: 10 / 10
----------------------------------------------------------------------
   zero-point line
Cmd	14:	distance_between	901034	902240
   zero-point line

   zero-point line
First:	( 105d 16m 20s West, 36d 23m 3s North ) Angel Fire Ski Area, NM
   score: 10 / 10
Second:	( 104d 29m 38s West, 36d 39m 54s North ) Eagle Rock, NM
   score: 10 / 10
Distance: 76.2km
   score: 10 / 10
----------------------------------------------------------------------
   zero-point line
Cmd	15:	distance_between	903054	902746
   zero-point line

   zero-point line
First:	( 105d 57m 37s West, 32d 53m 58s North ) Alamogordo, NM
   score: 10 / 10
Second:	( 106d 28m 31s West, 33d 40m 38s North ) Trinity Site, NM
   score: 10 / 10
Distance: 98.8km
   score: 10 / 10
----------------------------------------------------------------------
   zero-point line

4 >> Score from stulog04.txt:  530 / 530
================================================================================

Testing with script05.txt
Running student soln on ./scripts/script05.txt

Running compare on reflog05.txt and stulog05.txt
compare05.txt results:
Comparing reference file ./logs/reflog05.txt to student file stulog05.txt:

;
   zero-point line
; Existence searches that should find single matches:
   zero-point line
Cmd	1:	exists	Annandale High School	VA
   zero-point line

   zero-point line
1 occurrences: Annandale High School VA
   score: 10 / 10
----------------------------------------------------------------------
   zero-point line
Cmd	2:	exists	Lusters Gate	VA
   zero-point line

   zero-point line
1 occurrences: Lusters Gate VA
   score: 10 / 10
----------------------------------------------------------------------
   zero-point line
;
   zero-point line
; Some that should find multiple matches:
   zero-point line
Cmd	3:	exists	Back Creek	VA
   zero-point line

   zero-point line
12 occurrences: Back Creek VA
   score: 10 / 10
----------------------------------------------------------------------
   zero-point line
Cmd	4:	exists	Low Gap	VA
   zero-point line

   zero-point line
9 occurrences: Low Gap VA
   score: 10 / 10
----------------------------------------------------------------------
   zero-point line
;
   zero-point line
; Some details searches:
   zero-point line
Cmd	5:	details_of	Flounder Point	VA
   zero-point line

   zero-point line
FID:	1466732
   score: 5 / 5
Name:	Flounder Point
   score: 5 / 5
Type:	Cape
   score: 5 / 5
State:	VA
   score: 5 / 5
County:	Accomack
   score: 5 / 5
Longitude: 075d 35m 30s West (-75.591591) 
   (-75.591591) should be (-75.591594)
   deduction for incorrect tokens: 0
   score: 5 / 5
Latitude: 37d 40m 42s North (37.678463)
   (37.678463) should be (37.678464)
   deduction for incorrect tokens: 0
   score: 5 / 5

   zero-point line
----------------------------------------------------------------------
   zero-point line
Cmd	6:	details_of	Lusters Gate	VA
   zero-point line

   zero-point line
FID:	1469939
   score: 5 / 5
Name:	Lusters Gate
   score: 5 / 5
Type:	Locale
   score: 5 / 5
State:	VA
   score: 5 / 5
County:	Montgomery
   score: 5 / 5
Longitude: 080d 21m 49s West (-80.363663) 
   (-80.363663) should be (-80.363659)
   deduction for incorrect tokens: 0
   score: 5 / 5
Latitude: 37d 14m 33s North (37.242630)
   score: 5 / 5

   zero-point line
----------------------------------------------------------------------
   zero-point line
Cmd	7:	details_of	Nomini Cliffs	VA
   zero-point line

   zero-point line
FID:	1471560
   score: 5 / 5
Name:	Nomini Cliffs
   score: 5 / 5
Type:	Cliff
   score: 5 / 5
State:	VA
   score: 5 / 5
County:	Westmoreland
   score: 5 / 5
Longitude: 076d 48m 41s West (-76.811356) 
   (-76.811356) should be (-76.811355)
   deduction for incorrect tokens: 0
   score: 5 / 5
Latitude: 38d 9m 58s North (38.166241)
   (38.166241) should be (38.166242)
   deduction for incorrect tokens: 0
   score: 5 / 5

   zero-point line
----------------------------------------------------------------------
   zero-point line
Cmd	8:	details_of	Devils Backbone	VA
   zero-point line

   zero-point line
FID:	1465740
   score: 5 / 5
Name:	Devils Backbone
   score: 5 / 5
Type:	Ridge
   score: 5 / 5
State:	VA
   score: 5 / 5
County:	Franklin
   score: 5 / 5
Longitude: 080d 6m 26s West (-80.107262) 
   (-80.107262) should be (-80.107261)
   deduction for incorrect tokens: 0
   score: 5 / 5
Latitude: 37d 2m 3s North (37.034302)
   (37.034302) should be (37.034303)
   deduction for incorrect tokens: 0
   score: 5 / 5

   zero-point line
FID:	1465741
   score: 5 / 5
Name:	Devils Backbone
   score: 5 / 5
Type:	Ridge
   score: 5 / 5
State:	VA
   score: 5 / 5
County:	Frederick
   score: 5 / 5
Longitude: 078d 5m 52s West (-78.097778) 
   (-78.097778) should be (-78.097777)
   deduction for incorrect tokens: 0
   score: 5 / 5
Latitude: 39d 12m 20s North (39.205658)
   (39.205658) should be (39.205659)
   deduction for incorrect tokens: 0
   score: 5 / 5

   zero-point line
----------------------------------------------------------------------
   zero-point line
Cmd	9:	details_of	Difficult Creek	VA
   zero-point line

   zero-point line
FID:	1465787
   score: 5 / 5
Name:	Difficult Creek
   score: 5 / 5
Type:	Stream
   score: 5 / 5
State:	VA
   score: 5 / 5
County:	Charlotte
   score: 5 / 5
Longitude: 078d 41m 16s West (-78.687782) 
   score: 5 / 5
Latitude: 36d 44m 42s North (36.745140)
   (36.745140) should be (36.745139)
   deduction for incorrect tokens: 0
   score: 5 / 5

   zero-point line
FID:	1465788
   score: 5 / 5
Name:	Difficult Creek
   score: 5 / 5
Type:	Stream
   score: 5 / 5
State:	VA
   score: 5 / 5
County:	Bedford
   score: 5 / 5
Longitude: 079d 31m 23s West (-79.523087) 
   (-79.523087) should be (-79.523085)
   deduction for incorrect tokens: 0
   score: 5 / 5
Latitude: 37d 10m 33s North (37.175701)
   (37.175701) should be (37.175700)
   deduction for incorrect tokens: 0
   score: 5 / 5

   zero-point line
----------------------------------------------------------------------
   zero-point line
Cmd	10:	details_of	Flowerdew Hundred	VA
   zero-point line

   zero-point line
FID:	1466738
   score: 5 / 5
Name:	Flowerdew Hundred
   score: 5 / 5
Type:	Flat
   score: 5 / 5
State:	VA
   score: 5 / 5
County:	Prince George
   score: 5 / 5
Longitude: 077d 5m 54s West (-77.098305) 
   (-77.098305) should be (-77.098304)
   deduction for incorrect tokens: 0
   score: 5 / 5
Latitude: 37d 17m 39s North (37.294037)
   score: 5 / 5

   zero-point line
----------------------------------------------------------------------
   zero-point line
;
   zero-point line
; Some distance searches:
   zero-point line
Cmd	11:	distance_between	1463750	1467851
   zero-point line

   zero-point line
First:	( 079d 41m 52s West, 37d 16m 9s North ) Bramletts Mountain, VA
   score: 10 / 10
Second:	( 078d 23m 11s West, 38d 33m 24s North ) Hawksbill Gap, VA
   score: 10 / 10
Distance: 183.7km
   score: 10 / 10
----------------------------------------------------------------------
   zero-point line
Cmd	12:	distance_between	1472187	1465729
   zero-point line

   zero-point line
First:	( 076d 34m 53s West, 37d 16m 45s North ) Penniman Spit, VA
   score: 10 / 10
Second:	( 080d 19m 11s West, 37d 8m 47s North ) Den Hill, VA
   score: 10 / 10
Distance: 331.4km
   score: 10 / 10
----------------------------------------------------------------------
   zero-point line
Cmd	13:	distance_between	1466738	1470021
   zero-point line

   zero-point line
First:	( 077d 5m 54s West, 37d 17m 39s North ) Flowerdew Hundred, VA
   score: 10 / 10
Second:	( 082d 21m 2s West, 36d 55m 55s North ) Maize Hollow, VA
   score: 10 / 10
Distance: 467.4km
   score: 10 / 10
----------------------------------------------------------------------
   zero-point line

5 >> Score from stulog05.txt:  410 / 410
================================================================================

Testing with script06.txt
Running student soln on ./scripts/script06.txt

Running compare on reflog06.txt and stulog06.txt
compare06.txt results:
Comparing reference file ./logs/reflog06.txt to student file stulog06.txt:

;
   zero-point line
; Details searches:
   zero-point line
Cmd	1:	details_of	Leadville	CO
   zero-point line

   zero-point line
FID:	204683
   score: 5 / 5
Name:	Leadville
   score: 5 / 5
Type:	Populated Place
   score: 5 / 5
State:	CO
   score: 5 / 5
County:	Lake
   score: 5 / 5
Longitude: 106d 17m 33s West (-106.292526) 
   (-106.292526) should be (-106.292524)
   deduction for incorrect tokens: 0
   score: 5 / 5
Latitude: 39d 15m 3s North (39.250824)
   (39.250824) should be (39.250823)
   deduction for incorrect tokens: 0
   score: 5 / 5

   zero-point line
----------------------------------------------------------------------
   zero-point line
Cmd	2:	details_of	McBryde Hall	VA
   zero-point line

   zero-point line
FID:	1674617
   score: 5 / 5
Name:	McBryde Hall
   score: 5 / 5
Type:	Building
   score: 5 / 5
State:	VA
   score: 5 / 5
County:	Montgomery
   score: 5 / 5
Longitude: 080d 25m 19s West (-80.421997) 
   (-80.421997) should be (-80.421995)
   deduction for incorrect tokens: 0
   score: 5 / 5
Latitude: 37d 13m 49s North (37.230408)
   (37.230408) should be (37.230407)
   deduction for incorrect tokens: 0
   score: 5 / 5

   zero-point line
----------------------------------------------------------------------
   zero-point line
Cmd	3:	details_of	Uncompahgre Butte	CO
   zero-point line

   zero-point line
FID:	185583
   score: 5 / 5
Name:	Uncompahgre Butte
   score: 5 / 5
Type:	Summit
   score: 5 / 5
State:	CO
   score: 5 / 5
County:	Mesa
   score: 5 / 5
Longitude: 108d 38m 51s West (-108.647598) 
   (-108.647598) should be (-108.647595)
   deduction for incorrect tokens: 0
   score: 5 / 5
Latitude: 38d 34m 36s North (38.576653)
   (38.576653) should be (38.576654)
   deduction for incorrect tokens: 0
   score: 5 / 5

   zero-point line
----------------------------------------------------------------------
   zero-point line
Cmd	4:	details_of	Asaga Strait	AS
   zero-point line

   zero-point line
FID:	1388698
   score: 5 / 5
Name:	Asaga Strait
   score: 5 / 5
Type:	Channel
   score: 5 / 5
State:	AS
   score: 5 / 5
County:	Manu‘a District
   score: 5 / 5
Longitude: 169d 37m 49s West (-169.630280) 
   (-169.630280) should be (-169.630278)
   deduction for incorrect tokens: 0
   score: 5 / 5
Latitude: 14d 10m 26s North (-14.173889)
   North should be South
   deduction for incorrect tokens: 0
   score: 5 / 5

   zero-point line
FID:	1388699
   score: 5 / 5
Name:	Asaga Strait
   score: 5 / 5
Type:	Channel
   score: 5 / 5
State:	AS
   score: 5 / 5
County:	Eastern
   score: 5 / 5
Longitude: 170d 37m 25s West (-170.623611) 
   score: 5 / 5
Latitude: 14d 15m 20s North (-14.255556)
   North should be South
   deduction for incorrect tokens: 0
   score: 5 / 5

   zero-point line
----------------------------------------------------------------------
   zero-point line
;
   zero-point line
; Some that need to pay attention to the state abbreviation:
   zero-point line
Cmd	5:	details_of	Mount Pleasant	IA
   zero-point line

   zero-point line
FID:	459328
   score: 5 / 5
Name:	Mount Pleasant
   score: 5 / 5
Type:	Populated Place
   score: 5 / 5
State:	IA
   score: 5 / 5
County:	Henry
   score: 5 / 5
Longitude: 091d 33m 29s West (-91.557938) 
   score: 5 / 5
Latitude: 40d 57m 49s North (40.963638)
   (40.963638) should be (40.963640)
   deduction for incorrect tokens: 0
   score: 5 / 5

   zero-point line
----------------------------------------------------------------------
   zero-point line
Cmd	6:	details_of	Mount Pleasant	IL
   zero-point line

   zero-point line
FID:	414041
   score: 5 / 5
Name:	Mount Pleasant
   score: 5 / 5
Type:	Populated Place
   score: 5 / 5
State:	IL
   score: 5 / 5
County:	Union
   score: 5 / 5
Longitude: 089d 4m 25s West (-89.073685) 
   (-89.073685) should be (-89.073686)
   deduction for incorrect tokens: 0
   score: 5 / 5
Latitude: 37d 27m 7s North (37.451996)
   (37.451996) should be (37.451995)
   deduction for incorrect tokens: 0
   score: 5 / 5

   zero-point line
----------------------------------------------------------------------
   zero-point line
;
   zero-point line
; Distance searches:
   zero-point line
Cmd	7:	distance_between	1388778	188771
   zero-point line

   zero-point line
First:	( 170d 48m 18s West, 14d 20m 10s North ) Fagamutu, AS
   North should be South
   deduction for incorrect tokens: 0
   score: 10 / 10
Second:	( 106d 53m 28s West, 38d 59m 35s North ) Conundrum Basin, CO
   score: 10 / 10
Distance: 8884.8km
   score: 10 / 10
----------------------------------------------------------------------
   zero-point line
Cmd	8:	distance_between	1388698	1390084
   zero-point line

   zero-point line
First:	( 169d 37m 49s West, 14d 10m 26s North ) Asaga Strait, AS
   North should be South
   deduction for incorrect tokens: 0
   score: 10 / 10
Second:	( 144d 45m 11s West, 13d 21m 6s North ) Talofofo, GU
   West, should be East,
   deduction for incorrect tokens: 0
   score: 10 / 10
Distance: 5881.6km
   score: 10 / 10
----------------------------------------------------------------------
   zero-point line
Cmd	9:	distance_between	188777	1674617
   zero-point line

   zero-point line
First:	( 106d 59m 23s West, 38d 57m 33s North ) Gothic, CO
   score: 10 / 10
Second:	( 080d 25m 19s West, 37d 13m 49s North ) McBryde Hall, VA
   score: 10 / 10
Distance: 2324.6km
   score: 10 / 10
----------------------------------------------------------------------
   zero-point line
Cmd	10:	distance_between	1498405	1498467
   zero-point line

   zero-point line
First:	( 080d 24m 50s West, 37d 13m 46s North ) Blacksburg, VA
   score: 10 / 10
Second:	( 080d 24m 32s West, 37d 7m 47s North ) Christiansburg, VA
   score: 10 / 10
Distance: 11.1km
   score: 10 / 10
----------------------------------------------------------------------
   zero-point line
Cmd	11:	distance_between	459328	414041
   zero-point line

   zero-point line
First:	( 091d 33m 29s West, 40d 57m 49s North ) Mount Pleasant, IA
   score: 10 / 10
Second:	( 089d 4m 25s West, 37d 27m 7s North ) Mount Pleasant, IL
   score: 10 / 10
Distance: 445.2km
   score: 10 / 10
----------------------------------------------------------------------
   zero-point line

6 >> Score from stulog06.txt:  395 / 395
================================================================================

Testing with script07.txt
Running student soln on ./scripts/script07.txt

Running compare on reflog07.txt and stulog07.txt
compare07.txt results:
Comparing reference file ./logs/reflog07.txt to student file stulog07.txt:

;
   zero-point line
; Existence search that should find NO match:
   zero-point line
Cmd	1:	exists	No Such Place	NM
   zero-point line

   zero-point line
0 occurrences: No Such Place NM
   0 should be Not
   occurrences: should be found
   No should be in
   Such should be index:
   Place should be No
   NM should be Such
   deduction for 2 missing tokens: 2
   deduction for incorrect tokens: 7
   score: 0 / 10
----------------------------------------------------------------------
   zero-point line
;
   zero-point line
; Details searches that should find single matches:
   zero-point line
Cmd	2:	details_of	No Such Place	NM
   zero-point line

   zero-point line
----------------------------------------------------------------------
   ---------------------------------------------------------------------- should be Not
   deduction for 7 missing tokens: 4
   deduction for incorrect tokens: 0
   score: 0 / 5
;
   zero-point line
; Distance_between searches:
   zero-point line
Cmd	3:	distance_between	101010	202020
   zero-point line

   zero-point line
First:	( 32587d -1277950348m 0s West, 0d 0m 0s North ) , 
   zero-point line
Second:	( 000d 0m 0s West, 0d 0m 0s North ) , 
   Second: should be Invalid
   ( should be feature
   000d should be ID:
   0m should be 101010
   deduction for 8 extra tokens: 20
   deduction for incorrect tokens: 10
   score: 0 / 10
Distance: 0.0km
   zero-point line
Student solution contained 19 lines
Reference solution contained 18 lines
Your score might have suffered as a result.

7 >> Score from stulog07.txt:  0 / 25
================================================================================

Testing with script08.txt
Running student soln on ./scripts/script08.txt

Running compare on reflog08.txt and stulog08.txt
compare08.txt results:
Comparing reference file ./logs/reflog08.txt to student file stulog08.txt:

;
   zero-point line
; Existence searches:
   zero-point line
Cmd	1:	exists	Jemez Falls	NM
   zero-point line

   zero-point line
1 occurrences: Jemez Falls NM
   score: 10 / 10
----------------------------------------------------------------------
   zero-point line
Cmd	2:	exists	Bosque del Apache National Wildlife Refuge	NM
   zero-point line

   zero-point line
1 occurrences: Bosque del Apache National Wildlife Refuge NM
   score: 10 / 10
----------------------------------------------------------------------
   zero-point line
;
   zero-point line
; Some details searches:
   zero-point line
Cmd	3:	details_of	Jemez Falls	NM
   zero-point line

   zero-point line
FID:	907344
   score: 5 / 5
Name:	Jemez Falls
   score: 5 / 5
Type:	Falls
   score: 5 / 5
State:	NM
   score: 5 / 5
County:	Sandoval
   score: 5 / 5
Longitude: 106d 36m 24s West (-106.606583) 
   (-106.606583) should be (-106.606581)
   deduction for incorrect tokens: 0
   score: 5 / 5
Latitude: 35d 48m 46s North (35.812679)
   (35.812679) should be (35.812680)
   deduction for incorrect tokens: 0
   score: 5 / 5

   zero-point line
----------------------------------------------------------------------
   zero-point line
Cmd	4:	details_of	Bosque del Apache National Wildlife Refuge	NM
   zero-point line

   zero-point line
FID:	920422
   score: 5 / 5
Name:	Bosque del Apache National Wildlife Refuge
   score: 5 / 5
Type:	Park
   score: 5 / 5
State:	NM
   score: 5 / 5
County:	Socorro
   score: 5 / 5
Longitude: 106d 53m 32s West (-106.892250) 
   (-106.892250) should be (-106.892253)
   deduction for incorrect tokens: 0
   score: 5 / 5
Latitude: 34d 48m 20s North (34.805611)
   (34.805611) should be (34.805610)
   deduction for incorrect tokens: 0
   score: 5 / 5

   zero-point line
----------------------------------------------------------------------
   zero-point line
Cmd	5:	details_of	Aztec Ruins National Monument	NM
   zero-point line

   zero-point line
FID:	885961
   score: 5 / 5
Name:	Aztec Ruins National Monument
   score: 5 / 5
Type:	Park
   score: 5 / 5
State:	NM
   score: 5 / 5
County:	San Juan
   score: 5 / 5
Longitude: 107d 59m 53s West (-107.998123) 
   (-107.998123) should be (-107.998124)
   deduction for incorrect tokens: 0
   score: 5 / 5
Latitude: 36d 50m 9s North (36.835838)
   (36.835838) should be (36.835837)
   deduction for incorrect tokens: 0
   score: 5 / 5

   zero-point line
----------------------------------------------------------------------
   zero-point line
Cmd	6:	details_of	Screaming Left Hand Turn	NM
   zero-point line

   zero-point line
FID:	925096
   score: 5 / 5
Name:	Screaming Left Hand Turn
   score: 5 / 5
Type:	Rapids
   score: 5 / 5
State:	NM
   score: 5 / 5
County:	Taos
   score: 5 / 5
Longitude: 106d 40m 25s West (-106.673645) 
   (-106.673645) should be (-106.673648)
   deduction for incorrect tokens: 0
   score: 5 / 5
Latitude: 36d 21m 3s North (36.350849)
   score: 5 / 5

   zero-point line
----------------------------------------------------------------------
   zero-point line
;
   zero-point line
; Some distance searches:
   zero-point line
Cmd	7:	distance_between	906350	920422
   zero-point line

   zero-point line
First:	( 106d 30m 8s West, 35d 3m 30s North ) Four Hills Ranch, NM
   score: 10 / 10
Second:	( 106d 53m 32s West, 34d 48m 20s North ) Bosque del Apache National Wildlife Refuge, NM
   score: 10 / 10
Distance: 45.3km
   score: 10 / 10
----------------------------------------------------------------------
   zero-point line
Cmd	8:	distance_between	2095890	885961
   zero-point line

   zero-point line
First:	( 104d 31m 24s West, 33d 18m 21s North ) Roswell Army Air Field (historical), NM
   score: 10 / 10
Second:	( 107d 59m 53s West, 36d 50m 9s North ) Aztec Ruins National Monument, NM
   score: 10 / 10
Distance: 504.0km
   score: 10 / 10
----------------------------------------------------------------------
   zero-point line
Cmd	9:	distance_between	925103	906605
   zero-point line

   zero-point line
First:	( 105d 23m 58s West, 35d 24m 14s North ) Dead Horse, NM
   score: 10 / 10
Second:	( 108d 50m 1s West, 33d 22m 35s North ) Gold Dust Gulch, NM
   score: 10 / 10
Distance: 387.4km
   score: 10 / 10
----------------------------------------------------------------------
   zero-point line

8 >> Score from stulog08.txt:  250 / 250
================================================================================

Testing with script09.txt
Running student soln on ./scripts/script09.txt

Running compare on reflog09.txt and stulog09.txt
compare09.txt results:
Comparing reference file ./logs/reflog09.txt to student file stulog09.txt:

;
   zero-point line
; Existence searches that should find single matches:
   zero-point line
Cmd	1:	exists	Annandale High School	VA
   zero-point line

   zero-point line
1 occurrences: Annandale High School VA
   score: 10 / 10
----------------------------------------------------------------------
   zero-point line
Cmd	2:	exists	Lusters Gate	VA
   zero-point line

   zero-point line
1 occurrences: Lusters Gate VA
   score: 10 / 10
----------------------------------------------------------------------
   zero-point line
;
   zero-point line
; Some that should find multiple matches:
   zero-point line
Cmd	3:	exists	Back Creek	VA
   zero-point line

   zero-point line
18 occurrences: Back Creek VA
   score: 10 / 10
----------------------------------------------------------------------
   zero-point line
Cmd	4:	exists	Low Gap	VA
   zero-point line

   zero-point line
15 occurrences: Low Gap VA
   score: 10 / 10
----------------------------------------------------------------------
   zero-point line
;
   zero-point line
; Some details searches:
   zero-point line
Cmd	5:	details_of	Flounder Point	VA
   zero-point line

   zero-point line
FID:	1466732
   score: 5 / 5
Name:	Flounder Point
   score: 5 / 5
Type:	Cape
   score: 5 / 5
State:	VA
   score: 5 / 5
County:	Accomack
   score: 5 / 5
Longitude: 075d 35m 30s West (-75.591591) 
   (-75.591591) should be (-75.591594)
   deduction for incorrect tokens: 0
   score: 5 / 5
Latitude: 37d 40m 42s North (37.678463)
   (37.678463) should be (37.678464)
   deduction for incorrect tokens: 0
   score: 5 / 5

   zero-point line
----------------------------------------------------------------------
   zero-point line
Cmd	6:	details_of	Lusters Gate	VA
   zero-point line

   zero-point line
FID:	1469939
   score: 5 / 5
Name:	Lusters Gate
   score: 5 / 5
Type:	Locale
   score: 5 / 5
State:	VA
   score: 5 / 5
County:	Montgomery
   score: 5 / 5
Longitude: 080d 21m 49s West (-80.363663) 
   (-80.363663) should be (-80.363659)
   deduction for incorrect tokens: 0
   score: 5 / 5
Latitude: 37d 14m 33s North (37.242630)
   score: 5 / 5

   zero-point line
----------------------------------------------------------------------
   zero-point line
Cmd	7:	details_of	Nomini Cliffs	VA
   zero-point line

   zero-point line
FID:	1471560
   score: 5 / 5
Name:	Nomini Cliffs
   score: 5 / 5
Type:	Cliff
   score: 5 / 5
State:	VA
   score: 5 / 5
County:	Westmoreland
   score: 5 / 5
Longitude: 076d 48m 41s West (-76.811356) 
   (-76.811356) should be (-76.811355)
   deduction for incorrect tokens: 0
   score: 5 / 5
Latitude: 38d 9m 58s North (38.166241)
   (38.166241) should be (38.166242)
   deduction for incorrect tokens: 0
   score: 5 / 5

   zero-point line
----------------------------------------------------------------------
   zero-point line
Cmd	8:	details_of	Devils Backbone	VA
   zero-point line

   zero-point line
FID:	1465740
   score: 5 / 5
Name:	Devils Backbone
   score: 5 / 5
Type:	Ridge
   score: 5 / 5
State:	VA
   score: 5 / 5
County:	Franklin
   score: 5 / 5
Longitude: 080d 6m 26s West (-80.107262) 
   (-80.107262) should be (-80.107261)
   deduction for incorrect tokens: 0
   score: 5 / 5
Latitude: 37d 2m 3s North (37.034302)
   (37.034302) should be (37.034303)
   deduction for incorrect tokens: 0
   score: 5 / 5

   zero-point line
FID:	1465741
   score: 5 / 5
Name:	Devils Backbone
   score: 5 / 5
Type:	Ridge
   score: 5 / 5
State:	VA
   score: 5 / 5
County:	Frederick
   score: 5 / 5
Longitude: 078d 5m 52s West (-78.097778) 
   (-78.097778) should be (-78.097777)
   deduction for incorrect tokens: 0
   score: 5 / 5
Latitude: 39d 12m 20s North (39.205658)
   (39.205658) should be (39.205659)
   deduction for incorrect tokens: 0
   score: 5 / 5

   zero-point line
FID:	1482986
   score: 5 / 5
Name:	Devils Backbone
   score: 5 / 5
Type:	Ridge
   score: 5 / 5
State:	VA
   score: 5 / 5
County:	Highland
   score: 5 / 5
Longitude: 079d 31m 34s West (-79.526161) 
   (-79.526161) should be (-79.526158)
   deduction for incorrect tokens: 0
   score: 5 / 5
Latitude: 38d 30m 50s North (38.514008)
   (38.514008) should be (38.514007)
   deduction for incorrect tokens: 0
   score: 5 / 5

   zero-point line
----------------------------------------------------------------------
   zero-point line
Cmd	9:	details_of	Difficult Creek	VA
   zero-point line

   zero-point line
FID:	1465787
   score: 5 / 5
Name:	Difficult Creek
   score: 5 / 5
Type:	Stream
   score: 5 / 5
State:	VA
   score: 5 / 5
County:	Charlotte
   score: 5 / 5
Longitude: 078d 41m 16s West (-78.687782) 
   score: 5 / 5
Latitude: 36d 44m 42s North (36.745140)
   (36.745140) should be (36.745139)
   deduction for incorrect tokens: 0
   score: 5 / 5

   zero-point line
FID:	1465788
   score: 5 / 5
Name:	Difficult Creek
   score: 5 / 5
Type:	Stream
   score: 5 / 5
State:	VA
   score: 5 / 5
County:	Bedford
   score: 5 / 5
Longitude: 079d 31m 23s West (-79.523087) 
   (-79.523087) should be (-79.523085)
   deduction for incorrect tokens: 0
   score: 5 / 5
Latitude: 37d 10m 33s North (37.175701)
   (37.175701) should be (37.175700)
   deduction for incorrect tokens: 0
   score: 5 / 5

   zero-point line
----------------------------------------------------------------------
   zero-point line
Cmd	10:	details_of	Flowerdew Hundred	VA
   zero-point line

   zero-point line
FID:	1466738
   score: 5 / 5
Name:	Flowerdew Hundred
   score: 5 / 5
Type:	Flat
   score: 5 / 5
State:	VA
   score: 5 / 5
County:	Prince George
   score: 5 / 5
Longitude: 077d 5m 54s West (-77.098305) 
   (-77.098305) should be (-77.098304)
   deduction for incorrect tokens: 0
   score: 5 / 5
Latitude: 37d 17m 39s North (37.294037)
   score: 5 / 5

   zero-point line
----------------------------------------------------------------------
   zero-point line
;
   zero-point line
; Some distance searches:
   zero-point line
Cmd	11:	distance_between	1463750	1467851
   zero-point line

   zero-point line
First:	( 079d 41m 52s West, 37d 16m 9s North ) Bramletts Mountain, VA
   score: 10 / 10
Second:	( 078d 23m 11s West, 38d 33m 24s North ) Hawksbill Gap, VA
   score: 10 / 10
Distance: 183.7km
   score: 10 / 10
----------------------------------------------------------------------
   zero-point line
Cmd	12:	distance_between	1472187	1465729
   zero-point line

   zero-point line
First:	( 076d 34m 53s West, 37d 16m 45s North ) Penniman Spit, VA
   score: 10 / 10
Second:	( 080d 19m 11s West, 37d 8m 47s North ) Den Hill, VA
   score: 10 / 10
Distance: 331.4km
   score: 10 / 10
----------------------------------------------------------------------
   zero-point line
Cmd	13:	distance_between	1466738	1470021
   zero-point line

   zero-point line
First:	( 077d 5m 54s West, 37d 17m 39s North ) Flowerdew Hundred, VA
   score: 10 / 10
Second:	( 082d 21m 2s West, 36d 55m 55s North ) Maize Hollow, VA
   score: 10 / 10
Distance: 467.4km
   score: 10 / 10
----------------------------------------------------------------------
   zero-point line

9 >> Score from stulog09.txt:  445 / 445
================================================================================


Details from valgrind check:

==30828== Memcheck, a memory error detector
==30828== Copyright (C) 2002-2017, and GNU GPL'd, by Julian Seward et al.
==30828== Using Valgrind-3.15.0-608cb11914-20190413 and LibVEX; rerun with -h for copyright info
==30828== Command: ./c08b ./scripts/script04.txt ./stuvgrindLog.txt
==30828== Parent PID: 30827
==30828== 
--30828-- 
--30828-- Valgrind options:
--30828--    --leak-check=full
--30828--    --show-leak-kinds=all
--30828--    --log-file=vgrindLog.txt
--30828--    --track-origins=yes
--30828--    -v
--30828-- Contents of /proc/version:
--30828--   Linux version 3.10.0-1062.9.1.el7.x86_64 (mockbuild@kbuilder.bsys.centos.org) (gcc version 4.8.5 20150623 (Red Hat 4.8.5-39) (GCC) ) #1 SMP Fri Dec 6 15:49:49 UTC 2019
--30828-- 
--30828-- Arch and hwcaps: AMD64, LittleEndian, amd64-cx16-rdtscp-sse3-ssse3-avx-f16c-rdrand
--30828-- Page sizes: currently 4096, max supported 4096
--30828-- Valgrind library directory: /usr/libexec/valgrind
--30828-- Reading syms from /home/ugrads/nonmajors/paullc/2505/A8 - GIS and Hashtable/C08B/grading/c08b
--30828-- Reading syms from /usr/lib64/ld-2.17.so
--30828-- Reading syms from /usr/libexec/valgrind/memcheck-amd64-linux
--30828--    object doesn't have a symbol table
--30828--    object doesn't have a dynamic symbol table
--30828-- Scheduler: using generic scheduler lock implementation.
--30828-- Reading suppressions file: /usr/libexec/valgrind/default.supp
==30828== embedded gdbserver: reading from /tmp/vgdb-pipe-from-vgdb-to-30828-by-paullc-on-gum.rlogin
==30828== embedded gdbserver: writing to   /tmp/vgdb-pipe-to-vgdb-from-30828-by-paullc-on-gum.rlogin
==30828== embedded gdbserver: shared mem   /tmp/vgdb-pipe-shared-mem-vgdb-30828-by-paullc-on-gum.rlogin
==30828== 
==30828== TO CONTROL THIS PROCESS USING vgdb (which you probably
==30828== don't want to do, unless you know exactly what you're doing,
==30828== or are doing some strange experiment):
==30828==   /usr/libexec/valgrind/../../bin/vgdb --pid=30828 ...command...
==30828== 
==30828== TO DEBUG THIS PROCESS USING GDB: start GDB like this
==30828==   /path/to/gdb ./c08b
==30828== and then give GDB the following command
==30828==   target remote | /usr/libexec/valgrind/../../bin/vgdb --pid=30828
==30828== --pid is optional if only one valgrind process is running
==30828== 
--30828-- REDIR: 0x4019e30 (ld-linux-x86-64.so.2:strlen) redirected to 0x580c7ed5 (???)
--30828-- REDIR: 0x4019c00 (ld-linux-x86-64.so.2:index) redirected to 0x580c7eef (???)
--30828-- Reading syms from /usr/libexec/valgrind/vgpreload_core-amd64-linux.so
--30828-- Reading syms from /usr/libexec/valgrind/vgpreload_memcheck-amd64-linux.so
==30828== WARNING: new redirection conflicts with existing -- ignoring it
--30828--     old: 0x04019e30 (strlen              ) R-> (0000.0) 0x580c7ed5 ???
--30828--     new: 0x04019e30 (strlen              ) R-> (2007.0) 0x04c2d1b0 strlen
--30828-- REDIR: 0x4019db0 (ld-linux-x86-64.so.2:strcmp) redirected to 0x4c2e300 (strcmp)
--30828-- REDIR: 0x401aa70 (ld-linux-x86-64.so.2:mempcpy) redirected to 0x4c31f90 (mempcpy)
--30828-- Reading syms from /usr/lib64/libm-2.17.so
--30828-- Reading syms from /usr/lib64/libc-2.17.so
--30828-- REDIR: 0x51c9130 (libc.so.6:strcasecmp) redirected to 0x4a247a0 (_vgnU_ifunc_wrapper)
--30828-- REDIR: 0x51c5eb0 (libc.so.6:strnlen) redirected to 0x4a247a0 (_vgnU_ifunc_wrapper)
--30828-- REDIR: 0x51cb400 (libc.so.6:strncasecmp) redirected to 0x4a247a0 (_vgnU_ifunc_wrapper)
--30828-- REDIR: 0x51c8910 (libc.so.6:memset) redirected to 0x4a247a0 (_vgnU_ifunc_wrapper)
--30828-- REDIR: 0x51c88c0 (libc.so.6:memcpy@GLIBC_2.2.5) redirected to 0x4a247a0 (_vgnU_ifunc_wrapper)
--30828-- REDIR: 0x51c78a0 (libc.so.6:__GI_strrchr) redirected to 0x4c2cb70 (__GI_strrchr)
--30828-- REDIR: 0x51be6b0 (libc.so.6:malloc) redirected to 0x4c29eec (malloc)
--30828-- REDIR: 0x51de920 (libc.so.6:__GI_strstr) redirected to 0x4c32220 (__strstr_sse2)
--30828-- REDIR: 0x51c7fa0 (libc.so.6:memchr) redirected to 0x4c2e3a0 (memchr)
--30828-- REDIR: 0x51cdb40 (libc.so.6:__GI_memcpy) redirected to 0x4c2efb0 (__GI_memcpy)
--30828-- REDIR: 0x51bf0d0 (libc.so.6:calloc) redirected to 0x4c2bff3 (calloc)
--30828-- REDIR: 0x51c57c0 (libc.so.6:strcpy) redirected to 0x4a247a0 (_vgnU_ifunc_wrapper)
--30828-- REDIR: 0x51d36e0 (libc.so.6:__strcpy_sse2_unaligned) redirected to 0x4c2d1d0 (strcpy)
--30828-- REDIR: 0x51c5d80 (libc.so.6:strlen) redirected to 0x4a247a0 (_vgnU_ifunc_wrapper)
--30828-- REDIR: 0x52a8680 (libc.so.6:__strlen_sse2_pminub) redirected to 0x4c2d0f0 (strlen)
--30828-- REDIR: 0x51cf1b0 (libc.so.6:__GI___rawmemchr) redirected to 0x4c31b10 (__GI___rawmemchr)
--30828-- REDIR: 0x51bead0 (libc.so.6:free) redirected to 0x4c2afe6 (free)
--30828-- REDIR: 0x51c7820 (libc.so.6:strncpy) redirected to 0x4a247a0 (_vgnU_ifunc_wrapper)
--30828-- REDIR: 0x51d3d10 (libc.so.6:__strncpy_sse2_unaligned) redirected to 0x4c2d780 (__strncpy_sse2_unaligned)
--30828-- REDIR: 0x51c5f50 (libc.so.6:strncat) redirected to 0x4a247a0 (_vgnU_ifunc_wrapper)
--30828-- REDIR: 0x51d6df0 (libc.so.6:__strncat_sse2_unaligned) redirected to 0x4c2cf80 (strncat)
--30828-- REDIR: 0x51cdad0 (libc.so.6:memcpy@@GLIBC_2.14) redirected to 0x4a247a0 (_vgnU_ifunc_wrapper)
--30828-- REDIR: 0x528da40 (libc.so.6:__memcpy_ssse3_back) redirected to 0x4c2e7b0 (memcpy@@GLIBC_2.14)
--30828-- REDIR: 0x51c4330 (libc.so.6:strcmp) redirected to 0x4a247a0 (_vgnU_ifunc_wrapper)
--30828-- REDIR: 0x5277d90 (libc.so.6:__strcmp_sse42) redirected to 0x4c2e2b0 (__strcmp_sse42)
--30828-- REDIR: 0x51bebb0 (libc.so.6:realloc) redirected to 0x4c2c1c5 (realloc)
--30828-- REDIR: 0x51c5f90 (libc.so.6:strncmp) redirected to 0x4a247a0 (_vgnU_ifunc_wrapper)
--30828-- REDIR: 0x5278b40 (libc.so.6:__strncmp_sse42) redirected to 0x4c2da20 (__strncmp_sse42)
--30828-- REDIR: 0x51c5dd0 (libc.so.6:__GI_strlen) redirected to 0x4c2d110 (__GI_strlen)
--30828-- REDIR: 0x51c8ae0 (libc.so.6:__GI_mempcpy) redirected to 0x4c31cc0 (__GI_mempcpy)
--30828-- REDIR: 0x51cf3c0 (libc.so.6:strchrnul) redirected to 0x4c31ab0 (strchrnul)
==30828== 
==30828== HEAP SUMMARY:
==30828==     in use at exit: 1,596,043 bytes in 110,420 blocks
==30828==   total heap usage: 128,661 allocs, 18,241 frees, 3,022,142 bytes allocated
==30828== 
==30828== Searching for pointers to 110,420 not-freed blocks
==30828== Checked 72,936 bytes
==30828== 
==30828== 16 bytes in 16 blocks are indirectly lost in loss record 1 of 26
==30828==    at 0x4C2C089: calloc (vg_replace_malloc.c:762)
==30828==    by 0x40210C: nextField (in /home/ugrads/nonmajors/paullc/2505/A8 - GIS and Hashtable/C08B/grading/c08b)
==30828==    by 0x401F07: createStringBundle (in /home/ugrads/nonmajors/paullc/2505/A8 - GIS and Hashtable/C08B/grading/c08b)
==30828==    by 0x4018DA: main (driver.c:279)
==30828== 
==30828== 16 bytes in 16 blocks are indirectly lost in loss record 2 of 26
==30828==    at 0x4C2C089: calloc (vg_replace_malloc.c:762)
==30828==    by 0x40210C: nextField (in /home/ugrads/nonmajors/paullc/2505/A8 - GIS and Hashtable/C08B/grading/c08b)
==30828==    by 0x401F07: createStringBundle (in /home/ugrads/nonmajors/paullc/2505/A8 - GIS and Hashtable/C08B/grading/c08b)
==30828==    by 0x401977: main (driver.c:286)
==30828== 
==30828== 20 bytes in 20 blocks are indirectly lost in loss record 3 of 26
==30828==    at 0x4C2C089: calloc (vg_replace_malloc.c:762)
==30828==    by 0x40210C: nextField (in /home/ugrads/nonmajors/paullc/2505/A8 - GIS and Hashtable/C08B/grading/c08b)
==30828==    by 0x401F07: createStringBundle (in /home/ugrads/nonmajors/paullc/2505/A8 - GIS and Hashtable/C08B/grading/c08b)
==30828==    by 0x4015C2: main (driver.c:242)
==30828== 
==30828== 24 bytes in 1 blocks are definitely lost in loss record 4 of 26
==30828==    at 0x4C2C089: calloc (vg_replace_malloc.c:762)
==30828==    by 0x402476: StringHashTable_create (in /home/ugrads/nonmajors/paullc/2505/A8 - GIS and Hashtable/C08B/grading/c08b)
==30828==    by 0x400FD8: main (driver.c:126)
==30828== 
==30828== 28 bytes in 4 blocks are indirectly lost in loss record 5 of 26
==30828==    at 0x4C2C089: calloc (vg_replace_malloc.c:762)
==30828==    by 0x402165: nextField (in /home/ugrads/nonmajors/paullc/2505/A8 - GIS and Hashtable/C08B/grading/c08b)
==30828==    by 0x401ED8: createStringBundle (in /home/ugrads/nonmajors/paullc/2505/A8 - GIS and Hashtable/C08B/grading/c08b)
==30828==    by 0x4018DA: main (driver.c:279)
==30828== 
==30828== 28 bytes in 4 blocks are indirectly lost in loss record 6 of 26
==30828==    at 0x4C2C089: calloc (vg_replace_malloc.c:762)
==30828==    by 0x402165: nextField (in /home/ugrads/nonmajors/paullc/2505/A8 - GIS and Hashtable/C08B/grading/c08b)
==30828==    by 0x401ED8: createStringBundle (in /home/ugrads/nonmajors/paullc/2505/A8 - GIS and Hashtable/C08B/grading/c08b)
==30828==    by 0x401977: main (driver.c:286)
==30828== 
==30828== 50 bytes in 1 blocks are definitely lost in loss record 7 of 26
==30828==    at 0x4C2C089: calloc (vg_replace_malloc.c:762)
==30828==    by 0x400F59: main (driver.c:114)
==30828== 
==30828== 60 bytes in 5 blocks are definitely lost in loss record 8 of 26
==30828==    at 0x4C2C089: calloc (vg_replace_malloc.c:762)
==30828==    by 0x402754: StringHashTable_getLocationsOf (in /home/ugrads/nonmajors/paullc/2505/A8 - GIS and Hashtable/C08B/grading/c08b)
==30828==    by 0x401530: main (driver.c:232)
==30828== 
==30828== 70 bytes in 10 blocks are indirectly lost in loss record 9 of 26
==30828==    at 0x4C2C089: calloc (vg_replace_malloc.c:762)
==30828==    by 0x402165: nextField (in /home/ugrads/nonmajors/paullc/2505/A8 - GIS and Hashtable/C08B/grading/c08b)
==30828==    by 0x401ED8: createStringBundle (in /home/ugrads/nonmajors/paullc/2505/A8 - GIS and Hashtable/C08B/grading/c08b)
==30828==    by 0x4015C2: main (driver.c:242)
==30828== 
==30828== 84 bytes in 6 blocks are definitely lost in loss record 10 of 26
==30828==    at 0x4C2C089: calloc (vg_replace_malloc.c:762)
==30828==    by 0x402754: StringHashTable_getLocationsOf (in /home/ugrads/nonmajors/paullc/2505/A8 - GIS and Hashtable/C08B/grading/c08b)
==30828==    by 0x40133B: main (driver.c:203)
==30828== 
==30828== 484 bytes in 60 blocks are indirectly lost in loss record 11 of 26
==30828==    at 0x4C2C089: calloc (vg_replace_malloc.c:762)
==30828==    by 0x402165: nextField (in /home/ugrads/nonmajors/paullc/2505/A8 - GIS and Hashtable/C08B/grading/c08b)
==30828==    by 0x401F07: createStringBundle (in /home/ugrads/nonmajors/paullc/2505/A8 - GIS and Hashtable/C08B/grading/c08b)
==30828==    by 0x401977: main (driver.c:286)
==30828== 
==30828== 496 bytes in 60 blocks are indirectly lost in loss record 12 of 26
==30828==    at 0x4C2C089: calloc (vg_replace_malloc.c:762)
==30828==    by 0x402165: nextField (in /home/ugrads/nonmajors/paullc/2505/A8 - GIS and Hashtable/C08B/grading/c08b)
==30828==    by 0x401F07: createStringBundle (in /home/ugrads/nonmajors/paullc/2505/A8 - GIS and Hashtable/C08B/grading/c08b)
==30828==    by 0x4018DA: main (driver.c:279)
==30828== 
==30828== 568 bytes in 1 blocks are still reachable in loss record 13 of 26
==30828==    at 0x4C29F73: malloc (vg_replace_malloc.c:309)
==30828==    by 0x51A7BBC: __fopen_internal (in /usr/lib64/libc-2.17.so)
==30828==    by 0x401DBC: main (driver.c:333)
==30828== 
==30828== 640 bytes in 4 blocks are indirectly lost in loss record 14 of 26
==30828==    at 0x4C29F73: malloc (vg_replace_malloc.c:309)
==30828==    by 0x401EB8: createStringBundle (in /home/ugrads/nonmajors/paullc/2505/A8 - GIS and Hashtable/C08B/grading/c08b)
==30828==    by 0x4018DA: main (driver.c:279)
==30828== 
==30828== 640 bytes in 4 blocks are indirectly lost in loss record 15 of 26
==30828==    at 0x4C29F73: malloc (vg_replace_malloc.c:309)
==30828==    by 0x401EB8: createStringBundle (in /home/ugrads/nonmajors/paullc/2505/A8 - GIS and Hashtable/C08B/grading/c08b)
==30828==    by 0x401977: main (driver.c:286)
==30828== 
==30828== 1,232 (64 direct, 1,168 indirect) bytes in 4 blocks are definitely lost in loss record 16 of 26
==30828==    at 0x4C2C089: calloc (vg_replace_malloc.c:762)
==30828==    by 0x401F61: createStringBundle (in /home/ugrads/nonmajors/paullc/2505/A8 - GIS and Hashtable/C08B/grading/c08b)
==30828==    by 0x401977: main (driver.c:286)
==30828== 
==30828== 1,244 (64 direct, 1,180 indirect) bytes in 4 blocks are definitely lost in loss record 17 of 26
==30828==    at 0x4C2C089: calloc (vg_replace_malloc.c:762)
==30828==    by 0x401F61: createStringBundle (in /home/ugrads/nonmajors/paullc/2505/A8 - GIS and Hashtable/C08B/grading/c08b)
==30828==    by 0x4018DA: main (driver.c:279)
==30828== 
==30828== 1,345 bytes in 170 blocks are indirectly lost in loss record 18 of 26
==30828==    at 0x4C2C089: calloc (vg_replace_malloc.c:762)
==30828==    by 0x402165: nextField (in /home/ugrads/nonmajors/paullc/2505/A8 - GIS and Hashtable/C08B/grading/c08b)
==30828==    by 0x401F07: createStringBundle (in /home/ugrads/nonmajors/paullc/2505/A8 - GIS and Hashtable/C08B/grading/c08b)
==30828==    by 0x4015C2: main (driver.c:242)
==30828== 
==30828== 1,600 bytes in 10 blocks are indirectly lost in loss record 19 of 26
==30828==    at 0x4C29F73: malloc (vg_replace_malloc.c:309)
==30828==    by 0x401EB8: createStringBundle (in /home/ugrads/nonmajors/paullc/2505/A8 - GIS and Hashtable/C08B/grading/c08b)
==30828==    by 0x4015C2: main (driver.c:242)
==30828== 
==30828== 3,195 (160 direct, 3,035 indirect) bytes in 10 blocks are definitely lost in loss record 20 of 26
==30828==    at 0x4C2C089: calloc (vg_replace_malloc.c:762)
==30828==    by 0x401F61: createStringBundle (in /home/ugrads/nonmajors/paullc/2505/A8 - GIS and Hashtable/C08B/grading/c08b)
==30828==    by 0x4015C2: main (driver.c:242)
==30828== 
==30828== 5,000 bytes in 10 blocks are definitely lost in loss record 21 of 26
==30828==    at 0x4C2C089: calloc (vg_replace_malloc.c:762)
==30828==    by 0x401552: main (driver.c:236)
==30828== 
==30828== 14,868 bytes in 14,868 blocks are indirectly lost in loss record 22 of 26
==30828==    at 0x4C2C089: calloc (vg_replace_malloc.c:762)
==30828==    by 0x40210C: nextField (in /home/ugrads/nonmajors/paullc/2505/A8 - GIS and Hashtable/C08B/grading/c08b)
==30828==    by 0x401F07: createStringBundle (in /home/ugrads/nonmajors/paullc/2505/A8 - GIS and Hashtable/C08B/grading/c08b)
==30828==    by 0x401051: main (driver.c:144)
==30828== 
==30828== 35,000 bytes in 5,000 blocks are indirectly lost in loss record 23 of 26
==30828==    at 0x4C2C089: calloc (vg_replace_malloc.c:762)
==30828==    by 0x402165: nextField (in /home/ugrads/nonmajors/paullc/2505/A8 - GIS and Hashtable/C08B/grading/c08b)
==30828==    by 0x401ED8: createStringBundle (in /home/ugrads/nonmajors/paullc/2505/A8 - GIS and Hashtable/C08B/grading/c08b)
==30828==    by 0x401051: main (driver.c:144)
==30828== 
==30828== 654,718 bytes in 80,132 blocks are indirectly lost in loss record 24 of 26
==30828==    at 0x4C2C089: calloc (vg_replace_malloc.c:762)
==30828==    by 0x402165: nextField (in /home/ugrads/nonmajors/paullc/2505/A8 - GIS and Hashtable/C08B/grading/c08b)
==30828==    by 0x401F07: createStringBundle (in /home/ugrads/nonmajors/paullc/2505/A8 - GIS and Hashtable/C08B/grading/c08b)
==30828==    by 0x401051: main (driver.c:144)
==30828== 
==30828== 800,000 bytes in 5,000 blocks are indirectly lost in loss record 25 of 26
==30828==    at 0x4C29F73: malloc (vg_replace_malloc.c:309)
==30828==    by 0x401EB8: createStringBundle (in /home/ugrads/nonmajors/paullc/2505/A8 - GIS and Hashtable/C08B/grading/c08b)
==30828==    by 0x401051: main (driver.c:144)
==30828== 
==30828== 1,584,586 (80,000 direct, 1,504,586 indirect) bytes in 5,000 blocks are definitely lost in loss record 26 of 26
==30828==    at 0x4C2C089: calloc (vg_replace_malloc.c:762)
==30828==    by 0x401F61: createStringBundle (in /home/ugrads/nonmajors/paullc/2505/A8 - GIS and Hashtable/C08B/grading/c08b)
==30828==    by 0x401051: main (driver.c:144)
==30828== 
==30828== LEAK SUMMARY:
==30828==    definitely lost: 85,506 bytes in 5,041 blocks
==30828==    indirectly lost: 1,509,969 bytes in 105,378 blocks
==30828==      possibly lost: 0 bytes in 0 blocks
==30828==    still reachable: 568 bytes in 1 blocks
==30828==         suppressed: 0 bytes in 0 blocks
==30828== 
==30828== ERROR SUMMARY: 9 errors from 9 contexts (suppressed: 0 from 0)
================================================================================
Results from buildLog.txt
Executing gradeC08b.sh...

Creating build subdirectory

Student's tar file contains:
-rw-r--r-- paullc/Others  3576 2020-04-14 22:07 StringBundle.o
-rw-r--r-- paullc/Others  7800 2019-10-22 21:42 StringHashTable.o
-rw-r--r-- paullc/Others 10563 2020-05-07 23:06 driver.c
-rw-r--r-- paullc/Others  1959 2020-05-06 17:00 StringBundle.h
-rw-r--r-- paullc/Others  4412 2020-05-07 20:57 StringHashTable.h

Copying the student's .c and .h files to the build directory:

total 40
-rw-r--r-- 1 paullc Others   138 May  7 23:09 buildLog.txt
-rw-r--r-- 1 paullc Others 10563 May  7 23:10 driver.c
-rw-r--r-- 1 paullc Others  1959 May  7 23:10 StringBundle.h
-rw-r--r-- 1 paullc Others  3576 May  7 23:10 StringBundle.o
-rw-r--r-- 1 paullc Others  4412 May  7 23:10 StringHashTable.h
-rw-r--r-- 1 paullc Others  7800 May  7 23:10 StringHashTable.o

Compiling the submitted files:
gcc -o c08b -std=c11 -Wall -W -ggdb3 -lm driver.c StringBundle.o StringHashTable.o
driver.c: In function ‘main’:
driver.c:165:8: warning: unused variable ‘added’ [-Wunused-variable]
   bool added = StringHashTable_addEntry(FNI, key, offset);
        ^
driver.c:86:14: warning: unused parameter ‘argc’ [-Wunused-parameter]
 int main(int argc, char **argv)
              ^
driver.c: In function ‘elfhash’:
driver.c:363:3: warning: suggest parentheses around assignment used as truth value [-Wparentheses]
   if (high = (hashvalue & 0xF0000000))
   ^

================================================================================
compare
gisdata/MixedFeatures.txt
gisdata/NM_1000.txt
gisdata/NM_100.txt
gisdata/NM_22500.txt
gisdata/NM_5000.txt
gisdata/VA_10000.txt
gisdata/VA_large.txt
logs/reflog01.txt
logs/reflog02.txt
logs/reflog03.txt
logs/reflog04.txt
logs/reflog05.txt
logs/reflog06.txt
logs/reflog07.txt
logs/reflog08.txt
logs/reflog09.txt
scripts/script01.txt
scripts/script02.txt
scripts/script03.txt
scripts/script04.txt
scripts/script05.txt
scripts/script06.txt
scripts/script07.txt
scripts/script08.txt
scripts/script09.txt

