1 >> Score from stulog01.txt:  135 / 135
2 >> Score from stulog02.txt:  150 / 150
3 >> Score from stulog03.txt:  660 / 660
4 >> Score from stulog04.txt:  530 / 530
5 >> Score from stulog05.txt:  410 / 410
6 >> Score from stulog06.txt:  395 / 395
7 >> Score from stulog07.txt:  0 / 25
8 >> Score from stulog08.txt:  250 / 250
9 >> Score from stulog09.txt:  445 / 445
