Valgrind issues:
==16921==     in use at exit: 0 bytes in 0 blocks
==16921==   total heap usage: 10,047 allocs, 10,047 frees, 992,554 bytes allocated
Invalid reads: 0
Invalid writes: 0
Uses of uninitialized values: 0
