(1044512W, 325523N)	(1040421W, 321326N)
(1043620W, 324146N)	(1042514W, 325015N)
(1040734W, 322920N)	(1040020W, 320349N)
(1043729W, 320853N)	(1042006W, 321917N)
(1045057W, 321656N)	(1042349W, 325058N)
(1042939W, 320852N)	(1034652W, 320643N)
(1042316W, 325034N)	(1042200W, 325953N)
(1034418W, 322629N)	(1042241W, 322358N)
(1042701W, 322303N)	(1042257W, 324807N)
(1040423W, 321333N)	(1044608W, 321247N)
(1041007W, 322104N)	(1043625W, 320206N)
(1044700W, 322107N)	(1042403W, 320937N)
(1045003W, 324941N)	(1041305W, 322304N)
(1041321W, 322656N)	(1042343W, 324119N)
(1043036W, 323938N)	(1041202W, 321029N)
(1042326W, 324814N)	(1042410W, 325018N)
(1035852W, 320721N)	(1041230W, 320659N)
(1042612W, 320909N)	(1041856W, 320142N)
(1042332W, 322307N)	(1041433W, 322640N)
(1041358W, 322208N)	(1042532W, 325032N)
(1044823W, 320450N)	(1043347W, 322302N)
(1041033W, 325124N)	(1043503W, 321851N)
(1040340W, 324501N)	(1044720W, 321723N)
(1042410W, 325018N)	(1042508W, 324502N)
(1041911W, 325127N)	(1042412W, 325032N)
(1043827W, 322928N)	(1035254W, 322654N)
(1042343W, 324810N)	(1042500W, 325326N)
(1042300W, 320948N)	(1042420W, 325016N)
(1040642W, 321012N)	(1044838W, 322119N)
(1043839W, 321751N)	(1043707W, 322302N)
(1040222W, 325116N)	(1042412W, 325032N)
(1043503W, 320216N)	(1035638W, 322439N)
(1044349W, 321516N)	(1041319W, 322440N)
(1042323W, 324654N)	(1040127W, 323251N)
(1035502W, 322150N)	(1042239W, 324538N)
(1042817W, 320345N)	(1044359W, 321728N)
(1042236W, 321032N)	(1043218W, 321740N)
(1043252W, 321604N)	(1043526W, 324620N)
(1042311W, 325117N)	(1043535W, 323335N)
(1042726W, 324543N)	(1042444W, 324700N)
(1043400W, 322132N)	(1040545W, 321710N)
(1042239W, 324630N)	(1042412W, 325032N)
(1043733W, 321018N)	(1043026W, 323517N)
(1044615W, 325046N)	(1042744W, 321754N)
(1044602W, 321351N)	(1043937W, 321558N)
(1042446W, 324831N)	(1035528W, 321742N)
(1042210W, 323756N)	(1042616W, 324854N)
(1043604W, 321428N)	(1043359W, 321821N)
(1042706W, 321705N)	(1040847W, 321127N)
(1041416W, 320455N)	(1043041W, 320258N)
(1043432W, 321709N)	(1041630W, 321533N)
(1041344W, 322514N)	(1041344W, 322514N)
(1041353W, 321251N)	(1043354W, 323208N)
(1040801W, 325641N)	(1043526W, 324620N)
(1040706W, 323538N)	(1042311W, 324534N)
(1043816W, 321819N)	(1042412W, 325032N)
(1041532W, 322402N)	(1042721W, 320008N)
(1042154W, 324659N)	(1042746W, 325109N)
(1041544W, 320619N)	(1041313W, 322527N)
(1040325W, 321144N)	(1043354W, 321411N)
(1041302W, 322706N)	(1042426W, 322920N)
(1040449W, 322315N)	(1040646W, 320444N)
(1042301W, 325032N)	(1043745W, 321627N)
(1042552W, 322259N)	(1041245W, 322703N)
(1035833W, 323556N)	(1042418W, 325018N)
(1042119W, 322849N)	(1035355W, 322752N)
(1043948W, 321008N)	(1041024W, 324040N)
(1042008W, 320754N)	(1042341W, 325024N)
(1043402W, 320713N)	(1041239W, 323011N)
(1044339W, 320819N)	(1042412W, 325030N)
(1044734W, 320643N)	(1041410W, 322520N)
(1035834W, 323556N)	(1040950W, 320400N)
(1042313W, 324930N)	(1044714W, 321057N)
(1042408W, 322926N)	(1040325W, 325216N)
(1044258W, 320851N)	(1044111W, 323302N)
(1040937W, 321138N)	(1041907W, 322235N)
(1042342W, 324537N)	(1035840W, 324908N)
(1044838W, 322119N)	(1042103W, 320122N)
(1044108W, 320731N)	(1041410W, 322520N)
(1042412W, 325032N)	(1043839W, 321751N)
(1044311W, 321512N)	(1042447W, 324958N)
(1042548W, 324912N)	(1041709W, 324941N)
(1040414W, 320300N)	(1040857W, 323127N)
(1043622W, 320906N)	(1044424W, 320453N)
(1042500W, 324551N)	(1042446W, 324834N)
(1042917W, 321935N)	(1043921W, 324057N)
(1044608W, 321247N)	(1044359W, 323338N)
(1041021W, 324022N)	(1042725W, 322738N)
(1044222W, 320429N)	(1041344W, 322514N)
(1042413W, 324653N)	(1042426W, 322920N)
(1044943W, 320500N)	(1042420W, 325016N)
(1043354W, 323208N)	(1044137W, 324146N)
(1035833W, 323556N)	(1042041W, 321730N)
(1042150W, 321643N)	(1040551W, 321714N)
(1044129W, 322349N)	(1042757W, 324925N)
(1044420W, 320201N)	(1042939W, 320852N)
(1041913W, 325106N)	(1041410W, 322520N)
(1042443W, 320245N)	(1044519W, 324315N)
(1042140W, 321316N)	(1035619W, 322923N)
(1043826W, 320408N)	(1042344W, 325032N)
(1044804W, 322727N)	(1042700W, 323522N)
(1042228W, 323242N)	(1035925W, 320129N)
(1043922W, 324821N)	(1044920W, 320357N)
(1042412W, 325032N)	(1042911W, 324930N)
(1043355W, 323642N)	(1044615W, 321253N)
(1043816W, 321819N)	(1042852W, 322557N)
(1035245W, 323726N)	(1041151W, 321411N)
(1044704W, 321306N)	(1042614W, 325120N)
(1035120W, 321203N)	(1041908W, 321037N)
(1044758W, 320923N)	(1041344W, 322514N)
(1035537W, 320901N)	(1041410W, 322520N)
(1044358W, 324837N)	(1035916W, 321141N)
(1042239W, 324502N)	(1042130W, 320450N)
(1044632W, 321122N)	(1042408W, 325048N)
(1041514W, 322924N)	(1044114W, 320330N)
(1042206W, 321957N)	(1042255W, 324807N)
(1042242W, 325006N)	(1042744W, 321754N)
(1043948W, 321008N)	(1042344W, 324814N)
(1043515W, 320723N)	(1042020W, 320715N)
(1040801W, 325641N)	(1042342W, 324554N)
(1042239W, 324527N)	(1044929W, 321504N)
(1041812W, 322447N)	(1043105W, 322048N)
(1042651W, 324848N)	(1043950W, 321012N)
(1043604W, 321428N)	(1043920W, 322550N)
(1035602W, 323208N)	(1042412W, 325032N)
(1034626W, 320330N)	(1040545W, 321710N)
(1035510W, 323408N)	(1031842W, 320219N)
(1031543W, 321402N)	(1044113W, 322733N)
(1042451W, 324950N)	(1042406W, 324521N)
(1044753W, 325249N)	(1045003W, 324941N)
(1041649W, 324410N)	(1043359W, 321821N)
(1042239W, 324527N)	(1042239W, 324630N)
(1042119W, 322849N)	(1042440W, 322037N)
(1042812W, 320340N)	(1042536W, 325048N)
(1041342W, 322514N)	(1042430W, 324933N)
(1042757W, 322646N)	(1044235W, 320945N)
(1042813W, 322745N)	(1044429W, 320431N)
(1042532W, 325032N)	(1044129W, 322349N)
(1041342W, 322514N)	(1042410W, 325018N)
(1043354W, 321411N)	(1042623W, 322817N)
(1035613W, 322446N)	(1042330W, 322143N)
(1042239W, 324501N)	(1043343W, 322838N)
(1042257W, 324815N)	(1041417W, 320838N)
(1042023W, 320252N)	(1044504W, 322600N)
(1041021W, 324022N)	(1044957W, 321835N)
(1044038W, 321049N)	(1040820W, 323042N)
(1044220W, 324158N)	(1043454W, 320205N)
(1041123W, 322420N)	(1042446W, 324910N)
(1043923W, 321551N)	(1041604W, 322447N)
(1042504W, 324553N)	(1044114W, 320330N)
(1042331W, 324702N)	(1041632W, 321806N)
(1044705W, 320846N)	(1041614W, 322806N)
(1044554W, 325728N)	(1040438W, 324423N)
(1042443W, 324614N)	(1040937W, 323249N)
(1040617W, 320557N)	(1044229W, 322751N)
(1041738W, 322140N)	(1043445W, 323323N)
(1042332W, 322307N)	(1042443W, 324744N)
(1042902W, 320322N)	(1034918W, 320205N)
(1035233W, 322424N)	(1041047W, 325413N)
(1041031W, 320624N)	(1043704W, 322624N)
(1044521W, 320548N)	(1042242W, 324958N)
(1040327W, 321939N)	(1035834W, 323556N)
(1042726W, 324543N)	(1042257W, 324815N)
(1042824W, 322246N)	(1042402W, 325025N)
(1034156W, 320424N)	(1040618W, 320557N)
(1042556W, 322255N)	(1042308W, 324514N)
(1042200W, 325953N)	(1031543W, 321402N)
(1041959W, 322406N)	(1043002W, 323208N)
(1044811W, 320923N)	(1041422W, 321923N)
(1041452W, 323917N)	(1044625W, 321209N)
(1042331W, 324702N)	(1044359W, 323338N)
(1035734W, 322139N)	(1042451W, 324950N)
(1042548W, 324846N)	(1043032W, 320138N)
(1041528W, 322633N)	(1042508W, 324502N)
(1041517W, 321219N)	(1044609W, 320241N)
(1041532W, 322402N)	(1042412W, 324652N)
(1044357W, 320548N)	(1042240W, 324612N)
(1041945W, 321314N)	(1044834W, 320830N)
(1044608W, 320645N)	(1041044W, 322431N)
(1044811W, 320923N)	(1041316W, 320732N)
(1041346W, 322556N)	(1042301W, 325032N)
(1040943W, 322652N)	(1035308W, 322118N)
(1044834W, 321001N)	(1043941W, 322013N)
(1042200W, 325953N)	(1042322W, 324754N)
(1044720W, 321112N)	(1042412W, 325032N)
(1042236W, 321032N)	(1041907W, 322235N)
(1041410W, 322520N)	(1042824W, 322246N)
(1041923W, 321642N)	(1042308W, 325004N)
(1044429W, 320431N)	(1035601W, 323817N)
(1042511W, 322842N)	(1035613W, 322446N)
(1041410W, 322520N)	(1043941W, 322013N)
(1041654W, 324410N)	(1043412W, 322126N)
(1043851W, 320354N)	(1034743W, 322625N)
(1044146W, 325714N)	(1042412W, 325032N)
(1041316W, 320732N)	(1041830W, 321601N)
(1041614W, 322759N)	(1043222W, 324024N)
(1041532W, 322402N)	(1042236W, 321032N)
(1034657W, 323024N)	(1035612W, 321717N)
(1042333W, 322626N)	(1042331W, 321855N)
(1044238W, 321239N)	(1042320W, 324610N)
(1041344W, 322514N)	(1042326W, 323332N)
(1041317W, 322458N)	(1040801W, 323159N)
(1040414W, 320300N)	(1043541W, 324850N)
(1043211W, 323203N)	(1041907W, 322235N)
(1042409W, 321433N)	(1042952W, 322402N)
(1040822W, 323022N)	(1043014W, 323622N)
(1043951W, 323232N)	(1041410W, 322520N)
(1042838W, 320910N)	(1044714W, 320319N)
(1034333W, 323101N)	(1042349W, 325140N)
(1042239W, 324615N)	(1035104W, 321128N)
(1042547W, 324729N)	(1042412W, 325032N)
(1034948W, 321341N)	(1044910W, 324558N)
(1042344W, 325004N)	(1044358W, 324837N)
(1043842W, 323045N)	(1044127W, 321030N)
(1041302W, 322706N)	(1035313W, 321752N)
(1041543W, 322149N)	(1035439W, 321946N)
(1041856W, 320142N)	(1041510W, 321223N)
(1044503W, 320440N)	(1044038W, 325653N)
(1042546W, 325110N)	(1043928W, 322543N)
(1044220W, 324158N)	(1035614W, 322445N)
(1042911W, 324930N)	(1042331W, 324935N)
(1042412W, 325032N)	(1042543W, 325036N)
(1044626W, 325246N)	(1042501W, 325057N)
(1035925W, 320129N)	(1044444W, 320549N)
(1044514W, 320734N)	(1042242W, 324821N)
(1043826W, 320408N)	(1041321W, 322656N)
(1042403W, 320937N)	(1044327W, 323522N)
(1042706W, 321705N)	(1044336W, 324120N)
(1044432W, 320058N)	(1040608W, 320230N)
(1041830W, 321601N)	(1042447W, 324958N)
(1044410W, 324837N)	(1044146W, 325714N)
(1042820W, 320508N)	(1042738W, 322101N)
(1040257W, 321032N)	(1043633W, 321825N)
(1042344W, 324814N)	(1042200W, 325953N)
(1035539W, 323800N)	(1044229W, 321554N)
(1043625W, 320206N)	(1044233W, 325719N)
(1041115W, 322945N)	(1044309W, 320716N)
(1041656W, 322638N)	(1035701W, 324331N)
(1042742W, 322719N)	(1044240W, 324312N)
(1043856W, 321748N)	(1044631W, 320322N)
(1044310W, 321512N)	(1042308W, 325004N)
(1044126W, 321004N)	(1035601W, 323817N)
(1042657W, 321649N)	(1043923W, 321551N)
(1042200W, 325953N)	(1043057W, 323650N)
(1040125W, 323730N)	(1042501W, 325016N)
(1042545W, 324940N)	(1041133W, 323039N)
(1044707W, 320344N)	(1042419W, 325043N)
(1042548W, 324846N)	(1043656W, 321140N)
(1043009W, 321021N)	(1042408W, 325027N)
(1035852W, 320721N)	(1040251W, 320257N)
(1042412W, 325032N)	(1045013W, 321219N)
(1041148W, 323512N)	(1042153W, 322703N)
(1044445W, 321127N)	(1035611W, 324948N)
(1044109W, 324505N)	(1041123W, 322420N)
(1044107W, 321154N)	(1044757W, 320713N)
(1042326W, 323332N)	(1044352W, 324608N)
(1041923W, 324907N)	(1043447W, 323332N)
(1040545W, 321710N)	(1042154W, 324659N)
(1043423W, 320756N)	(1041211W, 322326N)
(1040822W, 320536N)	(1043636W, 321048N)
(1042242W, 324958N)	(1042757W, 324925N)
(1042749W, 323846N)	(1041834W, 322927N)
(1042041W, 321730N)	(1040340W, 324501N)
(1041856W, 320142N)	(1041344W, 322514N)
(1034333W, 320101N)	(1042616W, 322527N)
(1040628W, 321024N)	(1042419W, 325043N)
(1041326W, 322448N)	(1035652W, 323610N)
(1042349W, 325140N)	(1044853W, 321340N)
(1041809W, 323134N)	(1041302W, 322706N)
(1040125W, 323730N)	(1042412W, 325032N)
(1044619W, 323925N)	(1041041W, 323027N)
(1041100W, 323146N)	(1042443W, 321423N)
(1043352W, 321401N)	(1043213W, 322101N)
(1042412W, 325032N)	(1042152W, 322035N)
(1042651W, 324848N)	(1043827W, 322928N)
(1044240W, 324312N)	(1044852W, 322102N)
(1042726W, 324543N)	(1043948W, 321008N)
(1042150W, 321643N)	(1035848W, 320117N)
(1040416W, 322947N)	(1043027W, 324756N)
(1042446W, 324834N)	(1042326W, 324814N)
(1044912W, 322450N)	(1040545W, 321710N)
(1042412W, 325032N)	(1035439W, 321946N)
(1040545W, 321710N)	(1040552W, 321700N)
(1040357W, 320445N)	(1040640W, 322006N)
(1035602W, 323208N)	(1042603W, 321925N)
(1043028W, 320431N)	(1041148W, 323512N)
(1042330W, 322143N)	(1044943W, 320652N)
(1043231W, 320454N)	(1043210W, 320108N)
(1042955W, 322709N)	(1042430W, 324948N)
(1034333W, 323101N)	(1044825W, 320203N)
(1042528W, 324516N)	(1042113W, 325344N)
(1041923W, 321642N)	(1042412W, 325032N)
(1043018W, 322244N)	(1035120W, 321203N)
(1044254W, 324327N)	(1044627W, 322108N)
(1040410W, 320957N)	(1044804W, 322727N)
(1042332W, 321653N)	(1044625W, 321209N)
(1044703W, 320853N)	(1042301W, 325032N)
(1035355W, 322752N)	(1035735W, 324658N)
(1043211W, 323203N)	(1044113W, 322733N)
(1043618W, 323932N)	(1042500W, 324551N)
(1041913W, 325106N)	(1044553W, 323926N)
(1042110W, 322449N)	(1042416W, 325300N)
(1043827W, 322928N)	(1041344W, 322514N)
(1044729W, 324943N)	(1041410W, 322520N)
(1040020W, 320349N)	(1043526W, 324620N)
(1042210W, 323756N)	(1041540W, 322817N)
(1034850W, 320905N)	(1041157W, 323042N)
(1044402W, 321200N)	(1042109W, 320122N)
(1034657W, 323015N)	(1035612W, 324754N)
(1041614W, 322806N)	(1043041W, 320258N)
(1044616W, 320558N)	(1042239W, 324654N)
(1042349W, 325058N)	(1044912W, 322450N)
(1043816W, 324219N)	(1042902W, 325700N)
(1043206W, 321706N)	(1044143W, 321443N)
(1044703W, 322132N)	(1042412W, 325032N)
(1043618W, 323932N)	(1043028W, 320431N)
(1042210W, 323756N)	(1044554W, 325728N)
(1043920W, 322550N)	(1042343W, 324810N)
(1042511W, 322842N)	(1042413W, 321958N)
(1042503W, 324843N)	(1044945W, 322701N)
(1040931W, 323739N)	(1042326W, 324814N)
(1035915W, 321032N)	(1041159W, 320443N)
(1041344W, 322551N)	(1044358W, 324837N)
(1042425W, 321455N)	(1044642W, 320357N)
(1041157W, 323042N)	(1041302W, 322706N)
(1044620W, 321059N)	(1042619W, 321253N)
(1041344W, 322514N)	(1042419W, 325043N)
(1044222W, 320429N)	(1042326W, 324708N)
(1043049W, 321635N)	(1042433W, 321224N)
(1041913W, 325106N)	(1042446W, 324848N)
(1042812W, 320340N)	(1042034W, 322355N)
(1042425W, 321455N)	(1040848W, 322737N)
(1042412W, 325032N)	(1042108W, 324136N)
(1040055W, 320307N)	(1042242W, 324821N)
(1042757W, 322646N)	(1044608W, 321247N)
(1041344W, 322514N)	(1043157W, 321146N)
(1044624W, 325022N)	(1041410W, 322520N)
(1042655W, 325004N)	(1043052W, 321427N)
(1042301W, 325032N)	(1042344W, 325004N)
(1044825W, 322916N)	(1041106W, 325520N)
(1042501W, 325110N)	(1042333W, 322626N)
(1041244W, 322030N)	(1041422W, 321923N)
(1042110W, 322449N)	(1044656W, 322105N)
(1042412W, 325032N)	(1042412W, 325032N)
(1042236W, 321032N)	(1042420W, 325025N)
(1043558W, 321750N)	(1044055W, 320651N)
(1042616W, 324854N)	(1044445W, 321127N)
(1042442W, 325037N)	(1044631W, 322559N)
(1042237W, 324503N)	(1043020W, 322545N)
(1041344W, 322514N)	(1035036W, 322450N)
(1044817W, 322300N)	(1042446W, 324624N)
(1040305W, 323222N)	(1043348W, 321406N)
(1043434W, 321240N)	(1042037W, 321259N)
(1041522W, 322305N)	(1041408W, 320738N)
(1042257W, 324807N)	(1041511W, 321206N)
(1040932W, 320956N)	(1042356W, 325211N)
(1041812W, 322447N)	(1042404W, 324706N)
(1042536W, 323556N)	(1044503W, 323413N)
(1043343W, 322838N)	(1044852W, 322102N)
(1041826W, 324307N)	(1044631W, 320506N)
(1041346W, 322556N)	(1042412W, 325032N)
(1042308W, 325004N)	(1042446W, 324834N)
(1042113W, 322441N)	(1042740W, 325642N)
(1035853W, 324909N)	(1042412W, 325032N)
(1044022W, 324725N)	(1041312W, 324758N)
(1042737W, 322720N)	(1042412W, 325032N)
(1040706W, 323538N)	(1042323W, 323354N)
(1041913W, 325106N)	(1041319W, 322440N)
(1043036W, 323938N)	(1042236W, 321032N)
(1044720W, 321112N)	(1040822W, 323022N)
(1035332W, 320631N)	(1042108W, 324136N)
(1042705W, 324844N)	(1042153W, 322225N)
(1043910W, 325404N)	(1042408W, 325048N)
(1035758W, 324011N)	(1044602W, 320412N)
(1035644W, 323008N)	(1042727W, 321814N)
(1044714W, 320319N)	(1041452W, 322204N)
(1042935W, 322639N)	(1035938W, 320844N)
(1042344W, 324814N)	(1042020W, 320715N)
(1042548W, 325022N)	(1041344W, 322514N)
(1044317W, 322946N)	(1034743W, 322625N)
(1042309W, 323456N)	(1042412W, 325032N)
(1041448W, 322640N)	(1041438W, 322609N)
(1042311W, 324612N)	(1040423W, 321122N)
(1042141W, 322820N)	(1042342W, 324554N)
(1043656W, 321140N)	(1042244W, 322755N)
(1042412W, 325032N)	(1044258W, 320851N)
(1040943W, 322652N)	(1043252W, 321604N)
(1044224W, 320044N)	(1044358W, 324837N)
(1045002W, 322000N)	(1035853W, 324909N)
(1042755W, 322733N)	(1042409W, 321433N)
(1041033W, 325124N)	(1043335W, 325047N)
(1040545W, 321710N)	(1035405W, 322154N)
(1041754W, 321050N)	(1044331W, 321523N)
(1040758W, 320901N)	(1042738W, 322101N)
(1041334W, 320312N)	(1042503W, 324843N)
(1042536W, 323556N)	(1035233W, 322424N)
(1035601W, 323817N)	(1042548W, 325012N)
(1044631W, 320322N)	(1031842W, 320219N)
(1044600W, 321440N)	(1041159W, 320443N)
(1041347W, 322545N)	(1044617W, 325236N)
(1040606W, 321240N)	(1035707W, 322204N)
(1031842W, 320219N)	(1042503W, 324843N)
(1035638W, 322439N)	(1043127W, 320448N)
(1040248W, 322939N)	(1043856W, 321748N)
(1041657W, 322952N)	(1042446W, 324739N)
(1041419W, 320733N)	(1043252W, 321604N)
(1035029W, 320653N)	(1041337W, 322735N)
(1042032W, 321445N)	(1042655W, 325004N)
(1044615W, 321253N)	(1042459W, 324509N)
(1043733W, 321018N)	(1042500W, 325326N)
(1043827W, 322928N)	(1044129W, 320210N)
(1041342W, 322514N)	(1044631W, 320322N)
(1041123W, 325447N)	(1042311W, 324534N)
(1041334W, 320312N)	(1043445W, 323323N)
(1042357W, 324647N)	(1042737W, 322720N)
(1043642W, 321316N)	(1041723W, 322541N)
(1042401W, 324929N)	(1034629W, 322819N)
(1044107W, 321154N)	(1042152W, 321716N)
(1043134W, 321525N)	(1042415W, 324808N)
(1043935W, 320945N)	(1042103W, 320122N)
(1042228W, 323242N)	(1042412W, 325032N)
(1042905W, 324917N)	(1044602W, 320412N)
(1040545W, 321710N)	(1042242W, 324821N)
(1041614W, 322759N)	(1042955W, 322709N)
(1043640W, 321817N)	(1040046W, 321639N)
(1041645W, 322444N)	(1044631W, 320506N)
(1042353W, 325023N)	(1043851W, 320354N)
(1041245W, 322703N)	(1044615W, 321253N)
(1041123W, 325447N)	(1043304W, 321757N)
(1044224W, 320044N)	(1042556W, 324807N)
(1040925W, 325415N)	(1042356W, 324946N)
(1044147W, 321440N)	(1043428W, 324055N)
(1040158W, 320454N)	(1034156W, 320424N)
(1042132W, 322322N)	(1042657W, 321649N)
(1042326W, 323333N)	(1044912W, 322450N)
(1041659W, 320847N)	(1043057W, 323650N)
(1042415W, 324755N)	(1043541W, 324850N)
(1034650W, 321424N)	(1043304W, 323644N)
(1035833W, 323556N)	(1042239W, 324522N)
(1042327W, 324612N)	(1042420W, 325016N)
(1041143W, 323512N)	(1041835W, 320211N)
(1042326W, 321738N)	(1044304W, 321403N)
(1041024W, 324040N)	(1043146W, 321208N)
(1042501W, 325110N)	(1043558W, 321750N)
(1042511W, 322842N)	(1041630W, 321533N)
(1035312W, 322931N)	(1035307W, 322100N)
(1042249W, 324745N)	(1044038W, 321049N)
(1041521W, 322648N)	(1041552W, 322640N)
(1041410W, 322620N)	(1044042W, 325431N)
(1044935W, 322017N)	(1042323W, 324612N)
(1040927W, 321000N)	(1042311W, 324614N)
(1040210W, 323230N)	(1041330W, 322631N)
(1040325W, 325216N)	(1041410W, 322520N)
(1042410W, 325018N)	(1041007W, 322104N)
(1044511W, 321350N)	(1032051W, 341038N)
(1041314W, 321524N)	(1042257W, 324815N)
(1042434W, 324752N)	(1044652W, 315900N)
(1045001W, 320506N)	(1043228W, 323607N)
(1041422W, 321923N)	(1041156W, 321748N)
(1042905W, 324917N)	(1041453W, 322816N)
(1042430W, 324948N)	(1042339W, 324654N)
(1040709W, 321331N)	(1043503W, 323229N)
(1042300W, 320948N)	(1042347W, 325041N)
(1044957W, 321835N)	(1044834W, 322302N)
(1044910W, 324558N)	(1042446W, 324848N)
(1044932W, 320652N)	(1042140W, 321316N)
(1044429W, 320431N)	(1040423W, 321122N)
(1042834W, 324831N)	(1042316W, 325547N)
(1043256W, 323815N)	(1044952W, 322610N)
(1044356W, 323757N)	(1044511W, 321350N)
(1043334W, 320558N)	(1041438W, 322609N)
(1043743W, 322030N)	(1042536W, 323556N)
(1040125W, 320303N)	(1042659W, 324934N)
(1035617W, 322447N)	(1042902W, 325700N)
(1042750W, 325635N)	(1042757W, 322646N)
(1042352W, 325036N)	(1043512W, 323903N)
(1044129W, 320210N)	(1035840W, 324908N)
(1041300W, 322636N)	(1042008W, 320754N)
(1040545W, 321710N)	(1041757W, 322510N)
(1042310W, 320735N)	(1044254W, 325738N)
(1042412W, 325032N)	(1041913W, 325106N)
(1044923W, 321121N)	(1042252W, 322251N)
(1041305W, 322304N)	(1043707W, 322302N)
(1041044W, 322431N)	(1041305W, 322304N)
(1041319W, 322440N)	(1044111W, 323302N)
(1044340W, 320140N)	(1042432W, 324711N)
(1044327W, 323522N)	(1042425W, 321455N)
(1043009W, 321021N)	(1040135W, 322122N)
(1040144W, 321354N)	(1042949W, 320319N)
(1042412W, 325030N)	(1042501W, 325110N)
(1042410W, 325018N)	(1040457W, 320439N)
(1035451W, 321950N)	(1042515W, 322849N)
(1040145W, 324401N)	(1044324W, 325732N)
(1042412W, 325032N)	(1035656W, 321830N)
(1040758W, 320901N)	(1042440W, 321454N)
(1044022W, 324725N)	(1043928W, 321147N)
(1043419W, 322442N)	(1042328W, 325045N)
(1042408W, 325027N)	(1044408W, 324857N)
(1042445W, 324847N)	(1044147W, 321440N)
(1043434W, 321240N)	(1034658W, 321037N)
